{
  "lines": [
    {
      "command": "window_title",
      "arguments": [
        0,
        0,
        0,
        0
      ],
      "original": "子供時代",
      "tl": "Childhood",
      "finished": false
    },
    {
      "command": "bg",
      "arguments": [
        0,
        0,
        0,
        0
      ],
      "data": "AQAAADJfQkdfMjA5ZAA="
    },
    {
      "command": "0x2F",
      "arguments": [
        0,
        10,
        3,
        0
      ],
      "data": "BQAAACAAAABAAAAA"
    },
    {
      "command": "music",
      "arguments": [
        0,
        0,
        4,
        1
      ],
      "data": "",
      "music_name": "04_m03"
    },
    {
      "command": "text",
      "arguments": [
        0,
        0,
        0,
        0
      ],
      "original": "そして、流星群の前の日。",
      "tl": "",
      "finished": false
    },
    {
      "command": "figure",
      "arguments": [
        0,
        1,
        0,
        1
      ],
      "data": "cGFwYTFfMW5fYTAxAA=="
    },
    {
      "command": "0x2F",
      "arguments": [
        0,
        2,
        0,
        0
      ],
      "data": ""
    },
    {
      "command": "name",
      "arguments": [
        0,
        1,
        0,
        0
      ],
      "original": "オヤジ"
    },
    {
      "command": "text",
      "arguments": [
        0,
        512,
        0,
        0
      ],
      "original": "「おう、<FN>。鈴夏を見なかったか？」",
      "tl": "",
      "finished": false,
      "speaker": "オヤジ",
      "autoQuote": true
    },
    {
      "command": "name",
      "arguments": [
        0,
        1,
        512,
        0
      ],
      "original": "<FN>"
    },
    {
      "command": "text",
      "arguments": [
        0,
        0,
        0,
        0
      ],
      "original": "「今なら部屋にいると思うけど、どうかしたのか」",
      "tl": "",
      "finished": false,
      "speaker": "<FN>",
      "autoQuote": true
    },
    {
      "command": "name",
      "arguments": [
        0,
        1,
        0,
        0
      ],
      "original": "オヤジ"
    },
    {
      "command": "text",
      "arguments": [
        0,
        0,
        0,
        0
      ],
      "original": "「望遠鏡の修理が終わって、\\n　明日には、宅配便で届けるって連絡があったんだよ」",
      "tl": "",
      "finished": false,
      "speaker": "オヤジ",
      "autoQuote": true
    },
    {
      "command": "name",
      "arguments": [
        0,
        1,
        512,
        0
      ],
      "original": "<FN>"
    },
    {
      "command": "text",
      "arguments": [
        0,
        0,
        0,
        0
      ],
      "original": "「えっ、そうなのか？」",
      "tl": "",
      "finished": false,
      "speaker": "<FN>",
      "autoQuote": true
    },
    {
      "command": "name",
      "arguments": [
        0,
        1,
        0,
        0
      ],
      "original": "オヤジ"
    },
    {
      "command": "text",
      "arguments": [
        0,
        0,
        0,
        0
      ],
      "original": "「ああ。そのことを鈴夏に、伝えてやろうと思ってな」",
      "tl": "",
      "finished": false,
      "speaker": "オヤジ",
      "autoQuote": true
    },
    {
      "command": "name",
      "arguments": [
        0,
        0,
        0,
        0
      ],
      "original": ""
    },
    {
      "command": "0x34",
      "arguments": [
        0,
        1,
        0,
        0
      ],
      "data": ""
    },
    {
      "command": "0x2F",
      "arguments": [
        0,
        2,
        0,
        0
      ],
      "data": ""
    },
    {
      "command": "text",
      "arguments": [
        0,
        0,
        0,
        0
      ],
      "original": "そう言って、オヤジは立ち去っていった。",
      "tl": "",
      "finished": false
    },
    {
      "command": "bg",
      "arguments": [
        0,
        0,
        0,
        0
      ],
      "data": "AQAAADJfQkdfMjAzZC0wMQA="
    },
    {
      "command": "0x2F",
      "arguments": [
        0,
        10,
        3,
        0
      ],
      "data": "BQAAACAAAABAAAAA"
    },
    {
      "command": "text",
      "arguments": [
        0,
        0,
        0,
        0
      ],
      "original": "望遠鏡が戻ってくるのか…。",
      "tl": "",
      "finished": false
    },
    {
      "command": "text",
      "arguments": [
        0,
        0,
        0,
        0
      ],
      "original": "てことは、明日は岬まで、\\n付き合わなくていいって事だよな。",
      "tl": "",
      "finished": false
    },
    {
      "command": "text",
      "arguments": [
        0,
        0,
        0,
        0
      ],
      "original": "いや、明日だけじゃない。",
      "tl": "",
      "finished": false
    },
    {
      "command": "text",
      "arguments": [
        0,
        0,
        0,
        0
      ],
      "original": "これからの観察に、\\n付き合う必要もないってことだ。",
      "tl": "",
      "finished": false
    },
    {
      "command": "text",
      "arguments": [
        0,
        0,
        0,
        0
      ],
      "original": "…なんだよ。\\nすげーラッキーじゃねーか。",
      "tl": "",
      "finished": false
    },
    {
      "command": "text",
      "arguments": [
        0,
        0,
        0,
        0
      ],
      "original": "ラッキーのはずだろ。",
      "tl": "",
      "finished": false
    },
    {
      "command": "text",
      "arguments": [
        0,
        0,
        0,
        0
      ],
      "original": "喜べよ、俺…",
      "tl": "",
      "finished": false
    },
    {
      "command": "0x65",
      "arguments": [
        0,
        0,
        20,
        0
      ],
      "data": ""
    },
    {
      "command": "0x13",
      "arguments": [
        0,
        800,
        0,
        0
      ],
      "data": ""
    },
    {
      "command": "0x59",
      "arguments": [
        0,
        0,
        0,
        0
      ],
      "data": ""
    },
    {
      "command": "bg",
      "arguments": [
        0,
        0,
        0,
        0
      ],
      "data": "AQAAAGJsYWNrAA=="
    },
    {
      "command": "0x2F",
      "arguments": [
        0,
        10,
        3,
        0
      ],
      "data": "BQAAACAAAABAAAAA"
    },
    {
      "command": "bg",
      "arguments": [
        0,
        0,
        0,
        0
      ],
      "data": "AQAAADFfQkdfMTE2bgA="
    },
    {
      "command": "0x2F",
      "arguments": [
        0,
        10,
        3,
        0
      ],
      "data": "BQAAACAAAABAAAAA"
    },
    {
      "command": "figure",
      "arguments": [
        0,
        1,
        0,
        1
      ],
      "data": "c3V6dTNfMG5fYjAxAA=="
    },
    {
      "command": "0x2F",
      "arguments": [
        0,
        2,
        0,
        0
      ],
      "data": ""
    },
    {
      "command": "music",
      "arguments": [
        0,
        0,
        29,
        1
      ],
      "data": "",
      "music_name": "29_y02"
    },
    {
      "command": "name",
      "arguments": [
        0,
        1,
        512,
        0
      ],
      "original": "<FN>"
    },
    {
      "command": "text",
      "arguments": [
        0,
        0,
        0,
        0
      ],
      "original": "「望遠鏡が直ったんだってな」",
      "tl": "",
      "finished": false,
      "speaker": "<FN>",
      "autoQuote": true
    },
    {
      "command": "name",
      "arguments": [
        0,
        0,
        0,
        0
      ],
      "original": ""
    },
    {
      "command": "text",
      "arguments": [
        0,
        0,
        0,
        0
      ],
      "original": "星の観察の合間に、鈴夏に話しかける。",
      "tl": "",
      "finished": false
    },
    {
      "command": "ogg",
      "arguments": [
        0,
        3,
        0,
        0
      ],
      "data": "c3V6dV8wMTk3Lm9nZwA="
    },
    {
      "command": "name",
      "arguments": [
        0,
        1,
        0,
        0
      ],
      "original": "鈴夏"
    },
    {
      "command": "text",
      "arguments": [
        0,
        0,
        0,
        0
      ],
      "original": "「あ、うん。お兄ちゃんも知ってたんだ」",
      "tl": "",
      "finished": false,
      "speaker": "鈴夏",
      "autoQuote": true
    },
    {
      "command": "name",
      "arguments": [
        0,
        1,
        512,
        0
      ],
      "original": "<FN>"
    },
    {
      "command": "text",
      "arguments": [
        0,
        0,
        0,
        0
      ],
      "original": "「おかげで、俺も岬まで行かなくて済むな」",
      "tl": "",
      "finished": false,
      "speaker": "<FN>",
      "autoQuote": true
    },
    {
      "command": "name",
      "arguments": [
        0,
        0,
        0,
        0
      ],
      "original": ""
    },
    {
      "command": "figure",
      "arguments": [
        0,
        1,
        0,
        1
      ],
      "data": "c3V6dTNfMG5fYTA1AA=="
    },
    {
      "command": "0x2F",
      "arguments": [
        0,
        2,
        0,
        0
      ],
      "data": ""
    },
    {
      "command": "ogg",
      "arguments": [
        0,
        3,
        0,
        0
      ],
      "data": "c3V6dV8wMTk4Lm9nZwA="
    },
    {
      "command": "name",
      "arguments": [
        0,
        1,
        0,
        0
      ],
      "original": "鈴夏"
    },
    {
      "command": "text",
      "arguments": [
        0,
        0,
        0,
        0
      ],
      "original": "「え？」",
      "tl": "",
      "finished": false,
      "speaker": "鈴夏",
      "autoQuote": true
    },
    {
      "command": "name",
      "arguments": [
        0,
        1,
        512,
        0
      ],
      "original": "<FN>"
    },
    {
      "command": "text",
      "arguments": [
        0,
        0,
        0,
        0
      ],
      "original": "「だって、そうじゃん。望遠鏡があるんだから、\\n　俺が行かなくても平気だろ」",
      "tl": "",
      "finished": false,
      "speaker": "<FN>",
      "autoQuote": true
    },
    {
      "command": "name",
      "arguments": [
        0,
        0,
        0,
        0
      ],
      "original": ""
    },
    {
      "command": "text",
      "arguments": [
        0,
        0,
        0,
        0
      ],
      "original": "前の浜辺で、観察すればいいわけだしな…。",
      "tl": "",
      "finished": false
    },
    {
      "command": "0x34",
      "arguments": [
        0,
        1,
        0,
        0
      ],
      "data": ""
    },
    {
      "command": "bg",
      "arguments": [
        0,
        0,
        0,
        0
      ],
      "data": "AQAAAGJsYWNrAA=="
    },
    {
      "command": "0x2F",
      "arguments": [
        0,
        2,
        2,
        0
      ],
      "data": "IQAAABAAAAA="
    },
    {
      "command": "name",
      "arguments": [
        0,
        1,
        512,
        0
      ],
      "original": "<FN>"
    },
    {
      "command": "text",
      "arguments": [
        0,
        0,
        0,
        0
      ],
      "original": "「鈴夏も自転車の特訓をしなくて、済むんだから、\\n　良かったじゃんか」",
      "tl": "",
      "finished": false,
      "speaker": "<FN>",
      "autoQuote": true
    },
    {
      "command": "name",
      "arguments": [
        0,
        0,
        0,
        0
      ],
      "original": ""
    },
    {
      "command": "text",
      "arguments": [
        0,
        0,
        0,
        0
      ],
      "original": "どうしても素直になることができなかった。",
      "tl": "",
      "finished": false
    },
    {
      "command": "text",
      "arguments": [
        0,
        0,
        0,
        0
      ],
      "original": "本当は、そんなこと思っていないのに…。",
      "tl": "",
      "finished": false
    },
    {
      "command": "text",
      "arguments": [
        0,
        0,
        0,
        0
      ],
      "original": "なにか話していないと、\\n自分の気持ちを、ごまかせそうもなかった。",
      "tl": "",
      "finished": false
    },
    {
      "command": "0x59",
      "arguments": [
        0,
        0,
        0,
        0
      ],
      "data": ""
    },
    {
      "command": "bg",
      "arguments": [
        0,
        0,
        0,
        0
      ],
      "data": "AQAAAGJsYWNrAA=="
    },
    {
      "command": "0x2F",
      "arguments": [
        0,
        10,
        3,
        0
      ],
      "data": "BQAAACAAAABAAAAA"
    },
    {
      "command": "bg",
      "arguments": [
        0,
        0,
        0,
        0
      ],
      "data": "AQAAADJfQkdfMjA5ZAA="
    },
    {
      "command": "0x2F",
      "arguments": [
        0,
        10,
        3,
        0
      ],
      "data": "BQAAACAAAABAAAAA"
    },
    {
      "command": "text",
      "arguments": [
        0,
        0,
        0,
        0
      ],
      "original": "朝飯を済ませた俺は、\\n鈴夏と二人でテレビを見ていた。",
      "tl": "",
      "finished": false
    },
    {
      "command": "text",
      "arguments": [
        0,
        0,
        0,
        0
      ],
      "original": "俺の好きなお笑い番組だったのだが、\\nその内容は、さっぱり頭に入ってこない。",
      "tl": "",
      "finished": false
    },
    {
      "command": "text",
      "arguments": [
        0,
        0,
        0,
        0
      ],
      "original": "ちなみに、オヤジのヤツは、\\nとっくに仕事へ、出かけていたりする。",
      "tl": "",
      "finished": false
    },
    {
      "command": "wav",
      "arguments": [
        0,
        0,
        0,
        0
      ],
      "data": "ejAwMTIud2F2AA=="
    },
    {
      "command": "text",
      "arguments": [
        0,
        0,
        0,
        0
      ],
      "original": "と、その時、玄関のチャイムが鳴る。",
      "tl": "",
      "finished": false
    },
    {
      "command": "name",
      "arguments": [
        0,
        1,
        0,
        0
      ],
      "original": "宅配便"
    },
    {
      "command": "text",
      "arguments": [
        0,
        0,
        0,
        0
      ],
      "original": "「ちは～、毎度、宅配便です」",
      "tl": "",
      "finished": false,
      "speaker": "宅配便",
      "autoQuote": true
    },
    {
      "command": "name",
      "arguments": [
        0,
        1,
        512,
        0
      ],
      "original": "<FN>"
    },
    {
      "command": "text",
      "arguments": [
        0,
        0,
        0,
        0
      ],
      "original": "「あ……」",
      "tl": "",
      "finished": false,
      "speaker": "<FN>",
      "autoQuote": true
    },
    {
      "command": "name",
      "arguments": [
        0,
        0,
        0,
        0
      ],
      "original": ""
    },
    {
      "command": "figure",
      "arguments": [
        0,
        1,
        0,
        1
      ],
      "data": "c3V6dTFfMG5fYTAxAA=="
    },
    {
      "command": "0x2F",
      "arguments": [
        0,
        2,
        0,
        0
      ],
      "data": ""
    },
    {
      "command": "ogg",
      "arguments": [
        0,
        3,
        0,
        0
      ],
      "data": "c3V6dV8wMjAwLm9nZwA="
    },
    {
      "command": "name",
      "arguments": [
        0,
        1,
        0,
        0
      ],
      "original": "鈴夏"
    },
    {
      "command": "text",
      "arguments": [
        0,
        0,
        0,
        0
      ],
      "original": "「お兄ちゃん、私が行ってくるよ」",
      "tl": "",
      "finished": false,
      "speaker": "鈴夏",
      "autoQuote": true
    },
    {
      "command": "name",
      "arguments": [
        0,
        0,
        0,
        0
      ],
      "original": ""
    },
    {
      "command": "0x34",
      "arguments": [
        0,
        1,
        0,
        0
      ],
      "data": ""
    },
    {
      "command": "0x2F",
      "arguments": [
        0,
        2,
        0,
        0
      ],
      "data": ""
    },
    {
      "command": "text",
      "arguments": [
        0,
        0,
        0,
        0
      ],
      "original": "ぱたぱたぱたぱた…",
      "tl": "",
      "finished": false
    },
    {
      "command": "ogg",
      "arguments": [
        0,
        3,
        0,
        0
      ],
      "data": "c3V6dV8wMjAxLm9nZwA="
    },
    {
      "command": "name",
      "arguments": [
        0,
        1,
        0,
        0
      ],
      "original": "鈴夏"
    },
    {
      "command": "text",
      "arguments": [
        0,
        0,
        0,
        0
      ],
      "original": "「ハンコはここでいいですか？」",
      "tl": "",
      "finished": false,
      "speaker": "鈴夏",
      "autoQuote": true
    },
    {
      "command": "name",
      "arguments": [
        0,
        1,
        0,
        0
      ],
      "original": "宅配便"
    },
    {
      "command": "text",
      "arguments": [
        0,
        0,
        0,
        0
      ],
      "original": "「はい、どうも。\\n　お荷物はどこに置きましょうか」",
      "tl": "",
      "finished": false,
      "speaker": "宅配便",
      "autoQuote": true
    },
    {
      "command": "name",
      "arguments": [
        0,
        0,
        0,
        0
      ],
      "original": ""
    },
    {
      "command": "ogg",
      "arguments": [
        0,
        3,
        0,
        0
      ],
      "data": "c3V6dV8wMjAyLm9nZwA="
    },
    {
      "command": "name",
      "arguments": [
        0,
        1,
        0,
        0
      ],
      "original": "鈴夏"
    },
    {
      "command": "text",
      "arguments": [
        0,
        0,
        0,
        0
      ],
      "original": "「え、えーと、こっちの方に…」",
      "tl": "",
      "finished": false,
      "speaker": "鈴夏",
      "autoQuote": true
    },
    {
      "command": "name",
      "arguments": [
        0,
        0,
        0,
        0
      ],
      "original": ""
    },
    {
      "command": "wav",
      "arguments": [
        0,
        0,
        0,
        0
      ],
      "data": "ejAwMTcud2F2AA=="
    },
    {
      "command": "text",
      "arguments": [
        0,
        0,
        0,
        0
      ],
      "original": "そして、鈴夏が玄関を出て行った。",
      "tl": "",
      "finished": false
    },
    {
      "command": "text",
      "arguments": [
        0,
        0,
        0,
        0
      ],
      "original": "ガレージにでも、置いてもらうことにしたのだろう。",
      "tl": "",
      "finished": false
    },
    {
      "command": "0x34",
      "arguments": [
        0,
        1,
        0,
        0
      ],
      "data": ""
    },
    {
      "command": "bg",
      "arguments": [
        0,
        0,
        0,
        0
      ],
      "data": "AQAAAGJsYWNrAA=="
    },
    {
      "command": "0x2F",
      "arguments": [
        0,
        2,
        2,
        0
      ],
      "data": "IQAAABAAAAA="
    },
    {
      "command": "text",
      "arguments": [
        0,
        0,
        0,
        0
      ],
      "original": "しばらく、一人でテレビを見続けるが、\\nちっとも面白くなかった。",
      "tl": "",
      "finished": false
    },
    {
      "command": "bg",
      "arguments": [
        0,
        0,
        0,
        0
      ],
      "data": "AQAAADJfQkdfMjA5ZAA="
    },
    {
      "command": "0x2F",
      "arguments": [
        0,
        10,
        3,
        0
      ],
      "data": "BQAAACAAAABAAAAA"
    },
    {
      "command": "text",
      "arguments": [
        0,
        0,
        0,
        0
      ],
      "original": "…ん？　これは…",
      "tl": "",
      "finished": false
    },
    {
      "command": "text",
      "arguments": [
        0,
        0,
        0,
        0
      ],
      "original": "居間の机の上に、これまでの観察で使っていた、\\nオペラグラスが、置いてあった。",
      "tl": "",
      "finished": false
    },
    {
      "command": "choice",
      "arguments": [
        0,
        2,
        0,
        0
      ],
      "original": [
        "手に取る",
        "手に取らない"
      ],
      "tl": [
        "",
        ""
      ],
      "finished": false
    },
    {
      "command": "branch",
      "arguments": [
        4960,
        0,
        1,
        1
      ],
      "data": "",
      "jump": 2
    },
    {
      "command": "load_script",
      "arguments": [
        0,
        3008,
        0,
        0
      ],
      "data": "",
      "script_name": "00suzuk3_1"
    },
    {
      "command": "branch",
      "arguments": [
        5008,
        0,
        2,
        1
      ],
      "data": "",
      "jump": 2
    },
    {
      "command": "load_script",
      "arguments": [
        0,
        3009,
        0,
        0
      ],
      "data": "",
      "script_name": "00suzuk3_2"
    },
    {
      "command": "exit",
      "arguments": [
        -1,
        0,
        0,
        0
      ],
      "data": ""
    }
  ]
}