{
  "lines": [
    {
      "command": "window_title",
      "arguments": [
        0,
        0,
        0,
        0
      ],
      "original": "七海　７月７日",
      "tl": "",
      "finished": false
    },
    {
      "command": "0x59",
      "arguments": [
        0,
        0,
        0,
        0
      ],
      "data": ""
    },
    {
      "command": "bg",
      "arguments": [
        0,
        0,
        0,
        0
      ],
      "data": "AQAAAHdoaXRlAA=="
    },
    {
      "command": "0x2F",
      "arguments": [
        0,
        2,
        2,
        0
      ],
      "data": "IQAAABAAAAA="
    },
    {
      "command": "0x47",
      "arguments": [
        0,
        538,
        185,
        0
      ],
      "data": ""
    },
    {
      "command": "0x48",
      "arguments": [
        0,
        501,
        0,
        0
      ],
      "data": ""
    },
    {
      "command": "bg",
      "arguments": [
        0,
        0,
        0,
        0
      ],
      "data": "AQAAADA3ZAA="
    },
    {
      "command": "0x2F",
      "arguments": [
        0,
        2,
        2,
        0
      ],
      "data": "IQAAABAAAAA="
    },
    {
      "command": "0x13",
      "arguments": [
        0,
        1500,
        0,
        0
      ],
      "data": ""
    },
    {
      "command": "0x49",
      "arguments": [
        0,
        0,
        0,
        0
      ],
      "data": ""
    },
    {
      "command": "bg",
      "arguments": [
        0,
        0,
        0,
        0
      ],
      "data": "AQAAAHdoaXRlAA=="
    },
    {
      "command": "0x2F",
      "arguments": [
        0,
        2,
        2,
        0
      ],
      "data": "IQAAABAAAAA="
    },
    {
      "command": "wav",
      "arguments": [
        0,
        0,
        0,
        0
      ],
      "data": "dG9yaS53YXYA"
    },
    {
      "command": "text",
      "arguments": [
        0,
        0,
        0,
        0
      ],
      "original": "チュンチュン…",
      "tl": "",
      "finished": false
    },
    {
      "command": "text",
      "arguments": [
        0,
        0,
        0,
        0
      ],
      "original": "もう朝か…\\n鳥の鳴き声に俺はゆっくりと目を開ける。",
      "tl": "",
      "finished": false
    },
    {
      "command": "name",
      "arguments": [
        0,
        1,
        512,
        0
      ],
      "original": "<FN>"
    },
    {
      "command": "text",
      "arguments": [
        0,
        0,
        0,
        0
      ],
      "original": "「うん？　なんかちょっと…」",
      "tl": "",
      "finished": false,
      "speaker": "<FN>",
      "autoQuote": true
    },
    {
      "command": "name",
      "arguments": [
        0,
        0,
        0,
        0
      ],
      "original": ""
    },
    {
      "command": "text",
      "arguments": [
        0,
        0,
        0,
        0
      ],
      "original": "いつもと様子が違うような気がする。\\n朝の割に、暗いってゆーか、狭くて苦しいってゆーか…",
      "tl": "",
      "finished": false
    },
    {
      "command": "music",
      "arguments": [
        0,
        0,
        13,
        1
      ],
      "data": "",
      "music_name": "13_Ａi02"
    },
    {
      "command": "bg",
      "arguments": [
        0,
        0,
        0,
        0
      ],
      "data": "AQAAAEJMQUNLAA=="
    },
    {
      "command": "0x2F",
      "arguments": [
        0,
        2,
        2,
        0
      ],
      "data": "IQAAABAAAAA="
    },
    {
      "command": "name",
      "arguments": [
        0,
        1,
        512,
        0
      ],
      "original": "<FN>"
    },
    {
      "command": "text",
      "arguments": [
        0,
        0,
        0,
        0
      ],
      "original": "「そっか、思い出した…」",
      "tl": "",
      "finished": false,
      "speaker": "<FN>",
      "autoQuote": true
    },
    {
      "command": "name",
      "arguments": [
        0,
        0,
        0,
        0
      ],
      "original": ""
    },
    {
      "command": "text",
      "arguments": [
        0,
        0,
        0,
        0
      ],
      "original": "なんか変だと思ったら、\\n昨夜の晩、ベッドを動かして壁との隙間で寝たんだった。",
      "tl": "",
      "finished": false
    },
    {
      "command": "wav",
      "arguments": [
        0,
        0,
        0,
        0
      ],
      "data": "ejAwMDMud2F2AA=="
    },
    {
      "command": "text",
      "arguments": [
        0,
        0,
        0,
        0
      ],
      "original": "コンコンコン…",
      "tl": "",
      "finished": false
    },
    {
      "command": "ogg",
      "arguments": [
        0,
        1,
        0,
        0
      ],
      "data": "bmFuYV8wMzI4ZS5vZ2cA"
    },
    {
      "command": "name",
      "arguments": [
        0,
        1,
        0,
        0
      ],
      "original": "七海"
    },
    {
      "command": "text",
      "arguments": [
        0,
        0,
        0,
        0
      ],
      "original": "「朝だよぉ、起きた？」",
      "tl": "",
      "finished": false,
      "speaker": "七海",
      "autoQuote": true
    },
    {
      "command": "name",
      "arguments": [
        0,
        1,
        512,
        0
      ],
      "original": "<FN>"
    },
    {
      "command": "text",
      "arguments": [
        0,
        0,
        0,
        0
      ],
      "original": "「ああ、起きてる…」",
      "tl": "",
      "finished": false,
      "speaker": "<FN>",
      "autoQuote": true
    },
    {
      "command": "name",
      "arguments": [
        0,
        0,
        0,
        0
      ],
      "original": ""
    },
    {
      "command": "text",
      "arguments": [
        0,
        0,
        0,
        0
      ],
      "original": "と思う。たぶん。\\nとりあえずドアの向こうの七海に返事してみる。",
      "tl": "",
      "finished": false
    },
    {
      "command": "ogg",
      "arguments": [
        0,
        1,
        0,
        0
      ],
      "data": "bmFuYV8wMzI5ZS5vZ2cA"
    },
    {
      "command": "name",
      "arguments": [
        0,
        1,
        0,
        0
      ],
      "original": "七海"
    },
    {
      "command": "text",
      "arguments": [
        0,
        0,
        0,
        0
      ],
      "original": "「じゃあ、入るよぉ～」",
      "tl": "",
      "finished": false,
      "speaker": "七海",
      "autoQuote": true
    },
    {
      "command": "name",
      "arguments": [
        0,
        0,
        0,
        0
      ],
      "original": ""
    },
    {
      "command": "wav",
      "arguments": [
        0,
        0,
        0,
        0
      ],
      "data": "dG9iaXJhLndhdgA="
    },
    {
      "command": "text",
      "arguments": [
        0,
        0,
        0,
        0
      ],
      "original": "カチャ、",
      "tl": "",
      "finished": false
    },
    {
      "command": "bg",
      "arguments": [
        0,
        0,
        0,
        0
      ],
      "data": "AQAAADJfQkdfMjAzZC0wMQA="
    },
    {
      "command": "0x2F",
      "arguments": [
        0,
        2,
        2,
        0
      ],
      "data": "IQAAABAAAAA="
    },
    {
      "command": "ogg",
      "arguments": [
        0,
        1,
        0,
        0
      ],
      "data": "bmFuYV8wMzMwLm9nZwA="
    },
    {
      "command": "name",
      "arguments": [
        0,
        1,
        0,
        0
      ],
      "original": "七海"
    },
    {
      "command": "text",
      "arguments": [
        0,
        8192,
        0,
        0
      ],
      "original": "「<NN>ちゃん、おはよう～」",
      "tl": "",
      "finished": false,
      "speaker": "七海",
      "autoQuote": true
    },
    {
      "command": "name",
      "arguments": [
        0,
        0,
        0,
        0
      ],
      "original": ""
    },
    {
      "command": "figure",
      "arguments": [
        0,
        1,
        0,
        1
      ],
      "data": "bmFuYTFfMW5fYTAxcwA="
    },
    {
      "command": "0x2F",
      "arguments": [
        0,
        2,
        0,
        0
      ],
      "data": ""
    },
    {
      "command": "ogg",
      "arguments": [
        0,
        1,
        0,
        0
      ],
      "data": "bmFuYV8wMzMxLm9nZwA="
    },
    {
      "command": "name",
      "arguments": [
        0,
        1,
        0,
        0
      ],
      "original": "七海"
    },
    {
      "command": "text",
      "arguments": [
        0,
        0,
        0,
        0
      ],
      "original": "「て、あれ？　いない？」",
      "tl": "",
      "finished": false,
      "speaker": "七海",
      "autoQuote": true
    },
    {
      "command": "name",
      "arguments": [
        0,
        0,
        0,
        0
      ],
      "original": ""
    },
    {
      "command": "text",
      "arguments": [
        0,
        0,
        0,
        0
      ],
      "original": "きっと、今ごろ七海先生は、\\n姿の見えない俺をキョロキョロ探しているのだろう。",
      "tl": "",
      "finished": false
    },
    {
      "command": "text",
      "arguments": [
        0,
        0,
        0,
        0
      ],
      "original": "それはそれで面白い気がするけど、\\nこんなことで遅刻しては情けない。",
      "tl": "",
      "finished": false
    },
    {
      "command": "text",
      "arguments": [
        0,
        0,
        0,
        0
      ],
      "original": "とりあえず脱出を試みてみるか…",
      "tl": "",
      "finished": false
    },
    {
      "command": "bg",
      "arguments": [
        0,
        0,
        0,
        0
      ],
      "data": "AQAAAEJMQUNLAA=="
    },
    {
      "command": "0x34",
      "arguments": [
        0,
        5,
        0,
        0
      ],
      "data": ""
    },
    {
      "command": "0x2F",
      "arguments": [
        0,
        2,
        2,
        0
      ],
      "data": "IQAAABAAAAA="
    },
    {
      "command": "name",
      "arguments": [
        0,
        1,
        512,
        0
      ],
      "original": "<FN>"
    },
    {
      "command": "text",
      "arguments": [
        0,
        0,
        0,
        0
      ],
      "original": "「ふんっ、ふん、おらぁ」",
      "tl": "",
      "finished": false,
      "speaker": "<FN>",
      "autoQuote": true
    },
    {
      "command": "name",
      "arguments": [
        0,
        0,
        0,
        0
      ],
      "original": ""
    },
    {
      "command": "ogg",
      "arguments": [
        0,
        1,
        0,
        0
      ],
      "data": "bmFuYV8wMzMyLm9nZwA="
    },
    {
      "command": "name",
      "arguments": [
        0,
        1,
        0,
        0
      ],
      "original": "七海"
    },
    {
      "command": "text",
      "arguments": [
        0,
        0,
        0,
        0
      ],
      "original": "「おかしいな…声はするんだけど」",
      "tl": "",
      "finished": false,
      "speaker": "七海",
      "autoQuote": true
    },
    {
      "command": "name",
      "arguments": [
        0,
        0,
        0,
        0
      ],
      "original": ""
    },
    {
      "command": "text",
      "arguments": [
        0,
        0,
        0,
        0
      ],
      "original": "ダメか。一通り腕を動かしてみたが無理っぽいし。\\nつか、さっさと七海も俺を発見してくれよ。",
      "tl": "",
      "finished": false
    },
    {
      "command": "text",
      "arguments": [
        0,
        0,
        0,
        0
      ],
      "original": "しょうがない、\\n著しく不本意だが救助を要請しよう。",
      "tl": "",
      "finished": false
    },
    {
      "command": "bg",
      "arguments": [
        0,
        0,
        0,
        0
      ],
      "data": "AQAAADJfQkdfMjAzZC0wMQA="
    },
    {
      "command": "0x2F",
      "arguments": [
        0,
        2,
        0,
        0
      ],
      "data": ""
    },
    {
      "command": "name",
      "arguments": [
        0,
        1,
        512,
        0
      ],
      "original": "<FN>"
    },
    {
      "command": "text",
      "arguments": [
        0,
        0,
        0,
        0
      ],
      "original": "「あ～、すまん七海さんや」",
      "tl": "",
      "finished": false,
      "speaker": "<FN>",
      "autoQuote": true
    },
    {
      "command": "name",
      "arguments": [
        0,
        0,
        0,
        0
      ],
      "original": ""
    },
    {
      "command": "figure",
      "arguments": [
        0,
        1,
        0,
        1
      ],
      "data": "bmFuYTFfMXNfYjEzcwA="
    },
    {
      "command": "0x2F",
      "arguments": [
        0,
        2,
        0,
        0
      ],
      "data": ""
    },
    {
      "command": "ogg",
      "arguments": [
        0,
        1,
        0,
        0
      ],
      "data": "bmFuYV8wMzMzLm9nZwA="
    },
    {
      "command": "name",
      "arguments": [
        0,
        1,
        0,
        0
      ],
      "original": "七海"
    },
    {
      "command": "text",
      "arguments": [
        0,
        0,
        0,
        0
      ],
      "original": "「え～と、どこにいるのぉ？」",
      "tl": "",
      "finished": false,
      "speaker": "七海",
      "autoQuote": true
    },
    {
      "command": "name",
      "arguments": [
        0,
        1,
        512,
        0
      ],
      "original": "<FN>"
    },
    {
      "command": "text",
      "arguments": [
        0,
        0,
        0,
        0
      ],
      "original": "「ここ、ここ」",
      "tl": "",
      "finished": false,
      "speaker": "<FN>",
      "autoQuote": true
    },
    {
      "command": "name",
      "arguments": [
        0,
        0,
        0,
        0
      ],
      "original": ""
    },
    {
      "command": "figure",
      "arguments": [
        0,
        1,
        0,
        1
      ],
      "data": "bmFuYTFfMXNfYTE0cwA="
    },
    {
      "command": "0x2F",
      "arguments": [
        0,
        2,
        0,
        0
      ],
      "data": ""
    },
    {
      "command": "ogg",
      "arguments": [
        0,
        1,
        0,
        0
      ],
      "data": "bmFuYV8wMzM0Lm9nZwA="
    },
    {
      "command": "name",
      "arguments": [
        0,
        1,
        0,
        0
      ],
      "original": "七海"
    },
    {
      "command": "text",
      "arguments": [
        0,
        0,
        0,
        0
      ],
      "original": "「ん～と…」",
      "tl": "",
      "finished": false,
      "speaker": "七海",
      "autoQuote": true
    },
    {
      "command": "name",
      "arguments": [
        0,
        0,
        0,
        0
      ],
      "original": ""
    },
    {
      "command": "figure",
      "arguments": [
        0,
        1,
        0,
        1
      ],
      "data": "bmFuYTFfMXNfYjA5cwA="
    },
    {
      "command": "0x31",
      "arguments": [
        0,
        1,
        0,
        0
      ],
      "data": ""
    },
    {
      "command": "0x2F",
      "arguments": [
        0,
        5,
        2,
        0
      ],
      "data": "FAAAAAgAAAA="
    },
    {
      "command": "0x31",
      "arguments": [
        0,
        0,
        0,
        0
      ],
      "data": ""
    },
    {
      "command": "0x2F",
      "arguments": [
        0,
        1,
        0,
        0
      ],
      "data": ""
    },
    {
      "command": "ogg",
      "arguments": [
        0,
        1,
        0,
        0
      ],
      "data": "bmFuYV8wMzM1Lm9nZwA="
    },
    {
      "command": "name",
      "arguments": [
        0,
        1,
        0,
        0
      ],
      "original": "七海"
    },
    {
      "command": "text",
      "arguments": [
        0,
        0,
        0,
        0
      ],
      "original": "「て、わっ、挟まってるしっ」",
      "tl": "",
      "finished": false,
      "speaker": "七海",
      "autoQuote": true
    },
    {
      "command": "name",
      "arguments": [
        0,
        1,
        512,
        0
      ],
      "original": "<FN>"
    },
    {
      "command": "text",
      "arguments": [
        0,
        0,
        0,
        0
      ],
      "original": "「すまんが、ちょいと引っ張ってくれい」",
      "tl": "",
      "finished": false,
      "speaker": "<FN>",
      "autoQuote": true
    },
    {
      "command": "name",
      "arguments": [
        0,
        0,
        0,
        0
      ],
      "original": ""
    },
    {
      "command": "figure",
      "arguments": [
        0,
        1,
        0,
        1
      ],
      "data": "bmFuYTFfMXNfYTEzcwA="
    },
    {
      "command": "0x2F",
      "arguments": [
        0,
        2,
        0,
        0
      ],
      "data": ""
    },
    {
      "command": "ogg",
      "arguments": [
        0,
        1,
        0,
        0
      ],
      "data": "bmFuYV8wMzM2Lm9nZwA="
    },
    {
      "command": "name",
      "arguments": [
        0,
        1,
        0,
        0
      ],
      "original": "七海"
    },
    {
      "command": "text",
      "arguments": [
        0,
        0,
        0,
        0
      ],
      "original": "「もう～、朝から何やってるのよぉ」",
      "tl": "",
      "finished": false,
      "speaker": "七海",
      "autoQuote": true
    },
    {
      "command": "name",
      "arguments": [
        0,
        0,
        0,
        0
      ],
      "original": ""
    },
    {
      "command": "0x34",
      "arguments": [
        0,
        1,
        0,
        0
      ],
      "data": ""
    },
    {
      "command": "bg",
      "arguments": [
        0,
        0,
        0,
        0
      ],
      "data": "AQAAAEJMQUNLAA=="
    },
    {
      "command": "0x2F",
      "arguments": [
        0,
        11,
        3,
        0
      ],
      "data": "BQAAACAAAABAAAAA"
    },
    {
      "command": "bg",
      "arguments": [
        0,
        0,
        0,
        0
      ],
      "data": "AQAAADJfQkdfMjAzZC0wMQA="
    },
    {
      "command": "0x2F",
      "arguments": [
        0,
        10,
        3,
        0
      ],
      "data": "BQAAACAAAABAAAAA"
    },
    {
      "command": "name",
      "arguments": [
        0,
        1,
        512,
        0
      ],
      "original": "<FN>"
    },
    {
      "command": "text",
      "arguments": [
        0,
        0,
        0,
        0
      ],
      "original": "「ふう～、ビックリした」",
      "tl": "",
      "finished": false,
      "speaker": "<FN>",
      "autoQuote": true
    },
    {
      "command": "name",
      "arguments": [
        0,
        0,
        0,
        0
      ],
      "original": ""
    },
    {
      "command": "figure",
      "arguments": [
        0,
        1,
        0,
        1
      ],
      "data": "bmFuYTFfMW5fYjA1cwA="
    },
    {
      "command": "0x2F",
      "arguments": [
        0,
        2,
        0,
        0
      ],
      "data": ""
    },
    {
      "command": "ogg",
      "arguments": [
        0,
        1,
        0,
        0
      ],
      "data": "bmFuYV8wMzM3Lm9nZwA="
    },
    {
      "command": "name",
      "arguments": [
        0,
        1,
        0,
        0
      ],
      "original": "七海"
    },
    {
      "command": "text",
      "arguments": [
        0,
        0,
        0,
        0
      ],
      "original": "「わたしがビックリだよぉ」",
      "tl": "",
      "finished": false,
      "speaker": "七海",
      "autoQuote": true
    },
    {
      "command": "name",
      "arguments": [
        0,
        0,
        0,
        0
      ],
      "original": ""
    },
    {
      "command": "text",
      "arguments": [
        0,
        0,
        0,
        0
      ],
      "original": "いや、お前に言われたかねえぞ。",
      "tl": "",
      "finished": false
    },
    {
      "command": "figure",
      "arguments": [
        0,
        1,
        0,
        1
      ],
      "data": "bmFuYTFfMW5fYTAxcwA="
    },
    {
      "command": "0x2F",
      "arguments": [
        0,
        2,
        0,
        0
      ],
      "data": ""
    },
    {
      "command": "ogg",
      "arguments": [
        0,
        1,
        0,
        0
      ],
      "data": "bmFuYV8wMzM4Lm9nZwA="
    },
    {
      "command": "name",
      "arguments": [
        0,
        1,
        0,
        0
      ],
      "original": "七海"
    },
    {
      "command": "text",
      "arguments": [
        0,
        0,
        0,
        0
      ],
      "original": "「じゃあ、朝ゴハン出来てるから早く降りてきてね」",
      "tl": "",
      "finished": false,
      "speaker": "七海",
      "autoQuote": true
    },
    {
      "command": "name",
      "arguments": [
        0,
        1,
        512,
        0
      ],
      "original": "<FN>"
    },
    {
      "command": "text",
      "arguments": [
        0,
        0,
        0,
        0
      ],
      "original": "「わかった、すぐ行く」",
      "tl": "",
      "finished": false,
      "speaker": "<FN>",
      "autoQuote": true
    },
    {
      "command": "name",
      "arguments": [
        0,
        0,
        0,
        0
      ],
      "original": ""
    },
    {
      "command": "bg",
      "arguments": [
        0,
        0,
        0,
        0
      ],
      "data": "AQAAAGJsYWNrAA=="
    },
    {
      "command": "0x34",
      "arguments": [
        0,
        5,
        0,
        0
      ],
      "data": ""
    },
    {
      "command": "0x2F",
      "arguments": [
        0,
        10,
        3,
        0
      ],
      "data": "BQAAACAAAABAAAAA"
    },
    {
      "command": "ogg",
      "arguments": [
        0,
        3,
        0,
        0
      ],
      "data": "c3V6dV8yMDUxLm9nZwA="
    },
    {
      "command": "name",
      "arguments": [
        0,
        1,
        0,
        0
      ],
      "original": "鈴夏"
    },
    {
      "command": "text",
      "arguments": [
        0,
        0,
        0,
        0
      ],
      "original": "「いただきまーす」",
      "tl": "",
      "finished": false,
      "speaker": "鈴夏",
      "autoQuote": true
    },
    {
      "command": "name",
      "arguments": [
        0,
        0,
        0,
        0
      ],
      "original": ""
    },
    {
      "command": "bg",
      "arguments": [
        0,
        0,
        0,
        0
      ],
      "data": "AQAAAG5hX3N1X21lc2kwMW0A"
    },
    {
      "command": "0x2F",
      "arguments": [
        0,
        2,
        2,
        0
      ],
      "data": "IQAAABAAAAA="
    },
    {
      "command": "ogg",
      "arguments": [
        0,
        1,
        0,
        0
      ],
      "data": "bmFuYV8wMzM5Lm9nZwA="
    },
    {
      "command": "name",
      "arguments": [
        0,
        1,
        0,
        0
      ],
      "original": "七海"
    },
    {
      "command": "text",
      "arguments": [
        0,
        0,
        0,
        0
      ],
      "original": "「どう？　おいしい、鈴夏ちゃん？」",
      "tl": "",
      "finished": false,
      "speaker": "七海",
      "autoQuote": true
    },
    {
      "command": "name",
      "arguments": [
        0,
        0,
        0,
        0
      ],
      "original": ""
    },
    {
      "command": "ogg",
      "arguments": [
        0,
        3,
        0,
        0
      ],
      "data": "c3V6dV8yMDUyLm9nZwA="
    },
    {
      "command": "name",
      "arguments": [
        0,
        1,
        0,
        0
      ],
      "original": "鈴夏"
    },
    {
      "command": "text",
      "arguments": [
        0,
        0,
        0,
        0
      ],
      "original": "「うん、さすが七海お姉ちゃんだねぇ」",
      "tl": "",
      "finished": false,
      "speaker": "鈴夏",
      "autoQuote": true
    },
    {
      "command": "name",
      "arguments": [
        0,
        0,
        0,
        0
      ],
      "original": ""
    },
    {
      "command": "text",
      "arguments": [
        0,
        0,
        0,
        0
      ],
      "original": "こうやって七海は、\\nよくウチにまで飯を作りに来てくれたりする。",
      "tl": "",
      "finished": false
    },
    {
      "command": "text",
      "arguments": [
        0,
        0,
        0,
        0
      ],
      "original": "おばさんもそうだけど、\\n食事事情に乏しい我が友坂家にとっては非常に助かる。",
      "tl": "",
      "finished": false
    },
    {
      "command": "name",
      "arguments": [
        0,
        1,
        512,
        0
      ],
      "original": "<FN>"
    },
    {
      "command": "text",
      "arguments": [
        0,
        0,
        0,
        0
      ],
      "original": "「なあ、鈴夏、お前も少しは見習ったらどうだ」",
      "tl": "",
      "finished": false,
      "speaker": "<FN>",
      "autoQuote": true
    },
    {
      "command": "name",
      "arguments": [
        0,
        0,
        0,
        0
      ],
      "original": ""
    },
    {
      "command": "bg",
      "arguments": [
        0,
        0,
        0,
        0
      ],
      "data": "AQAAAG5hX3N1X21lc2kwM20A"
    },
    {
      "command": "0x2F",
      "arguments": [
        0,
        2,
        0,
        0
      ],
      "data": ""
    },
    {
      "command": "ogg",
      "arguments": [
        0,
        3,
        0,
        0
      ],
      "data": "c3V6dV8yMDUzLm9nZwA="
    },
    {
      "command": "name",
      "arguments": [
        0,
        1,
        0,
        0
      ],
      "original": "鈴夏"
    },
    {
      "command": "text",
      "arguments": [
        0,
        0,
        0,
        0
      ],
      "original": "「ふ～んだ、私だって本気だせば料理上手いんだから」",
      "tl": "",
      "finished": false,
      "speaker": "鈴夏",
      "autoQuote": true
    },
    {
      "command": "name",
      "arguments": [
        0,
        1,
        512,
        0
      ],
      "original": "<FN>"
    },
    {
      "command": "text",
      "arguments": [
        0,
        0,
        0,
        0
      ],
      "original": "「じゃあ、たまには本気出してくれよ。\\n　コゲてないトーストとかさ」",
      "tl": "",
      "finished": false,
      "speaker": "<FN>",
      "autoQuote": true
    },
    {
      "command": "name",
      "arguments": [
        0,
        0,
        0,
        0
      ],
      "original": ""
    },
    {
      "command": "bg",
      "arguments": [
        0,
        0,
        0,
        0
      ],
      "data": "AQAAAG5hX3N1X21lc2kwMm0A"
    },
    {
      "command": "0x2F",
      "arguments": [
        0,
        2,
        0,
        0
      ],
      "data": ""
    },
    {
      "command": "ogg",
      "arguments": [
        0,
        3,
        0,
        0
      ],
      "data": "c3V6dV8yMDU0Lm9nZwA="
    },
    {
      "command": "name",
      "arguments": [
        0,
        1,
        0,
        0
      ],
      "original": "鈴夏"
    },
    {
      "command": "text",
      "arguments": [
        0,
        0,
        0,
        0
      ],
      "original": "「なによぉ、お兄ちゃんだって、\\n　ひとのこと言えないでしょう」",
      "tl": "",
      "finished": false,
      "speaker": "鈴夏",
      "autoQuote": true
    },
    {
      "command": "name",
      "arguments": [
        0,
        0,
        0,
        0
      ],
      "original": ""
    },
    {
      "command": "ogg",
      "arguments": [
        0,
        1,
        0,
        0
      ],
      "data": "bmFuYV8wMzQwLm9nZwA="
    },
    {
      "command": "name",
      "arguments": [
        0,
        1,
        0,
        0
      ],
      "original": "七海"
    },
    {
      "command": "text",
      "arguments": [
        0,
        0,
        0,
        0
      ],
      "original": "「まあまあ、二人とも」",
      "tl": "",
      "finished": false,
      "speaker": "七海",
      "autoQuote": true
    },
    {
      "command": "name",
      "arguments": [
        0,
        0,
        0,
        0
      ],
      "original": ""
    },
    {
      "command": "ogg",
      "arguments": [
        0,
        1,
        0,
        0
      ],
      "data": "bmFuYV8wMzQxLm9nZwA="
    },
    {
      "command": "name",
      "arguments": [
        0,
        1,
        0,
        0
      ],
      "original": "七海"
    },
    {
      "command": "text",
      "arguments": [
        0,
        0,
        0,
        0
      ],
      "original": "「鈴夏ちゃんも、毎日お料理していれば、\\n　すぐに慣れて上手になっちゃうよ」",
      "tl": "",
      "finished": false,
      "speaker": "七海",
      "autoQuote": true
    },
    {
      "command": "name",
      "arguments": [
        0,
        0,
        0,
        0
      ],
      "original": ""
    },
    {
      "command": "bg",
      "arguments": [
        0,
        0,
        0,
        0
      ],
      "data": "AQAAAG5hX3N1X21lc2kwNG0A"
    },
    {
      "command": "0x2F",
      "arguments": [
        0,
        2,
        0,
        0
      ],
      "data": ""
    },
    {
      "command": "ogg",
      "arguments": [
        0,
        3,
        0,
        0
      ],
      "data": "c3V6dV8yMDU1Lm9nZwA="
    },
    {
      "command": "name",
      "arguments": [
        0,
        1,
        0,
        0
      ],
      "original": "鈴夏"
    },
    {
      "command": "text",
      "arguments": [
        0,
        0,
        0,
        0
      ],
      "original": "「ほら、聞いた？　お姉ちゃんもああ言ってるよ」",
      "tl": "",
      "finished": false,
      "speaker": "鈴夏",
      "autoQuote": true
    },
    {
      "command": "name",
      "arguments": [
        0,
        0,
        0,
        0
      ],
      "original": ""
    },
    {
      "command": "text",
      "arguments": [
        0,
        0,
        0,
        0
      ],
      "original": "七海の言葉に得意気な顔する鈴夏。\\nつか、なんで俺が非難の対象になんだよ。",
      "tl": "",
      "finished": false
    },
    {
      "command": "ogg",
      "arguments": [
        0,
        1,
        0,
        0
      ],
      "data": "bmFuYV8wMzQyLm9nZwA="
    },
    {
      "command": "name",
      "arguments": [
        0,
        1,
        0,
        0
      ],
      "original": "七海"
    },
    {
      "command": "text",
      "arguments": [
        0,
        8192,
        0,
        0
      ],
      "original": "「あ、<NN>ちゃん、ご飯おかわりだね」",
      "tl": "",
      "finished": false,
      "speaker": "七海",
      "autoQuote": true
    },
    {
      "command": "name",
      "arguments": [
        0,
        1,
        512,
        0
      ],
      "original": "<FN>"
    },
    {
      "command": "text",
      "arguments": [
        0,
        0,
        0,
        0
      ],
      "original": "「ん、ああ、サンキュー」",
      "tl": "",
      "finished": false,
      "speaker": "<FN>",
      "autoQuote": true
    },
    {
      "command": "name",
      "arguments": [
        0,
        0,
        0,
        0
      ],
      "original": ""
    },
    {
      "command": "text",
      "arguments": [
        0,
        0,
        0,
        0
      ],
      "original": "特に口に出した訳でもないのに、\\n察した七海が先におかわりを促がしてくれる。",
      "tl": "",
      "finished": false
    },
    {
      "command": "ogg",
      "arguments": [
        0,
        1,
        0,
        0
      ],
      "data": "bmFuYV8wMzQzLm9nZwA="
    },
    {
      "command": "name",
      "arguments": [
        0,
        1,
        0,
        0
      ],
      "original": "七海"
    },
    {
      "command": "text",
      "arguments": [
        0,
        0,
        0,
        0
      ],
      "original": "「あと、例のお漬物もあるよ」",
      "tl": "",
      "finished": false,
      "speaker": "七海",
      "autoQuote": true
    },
    {
      "command": "name",
      "arguments": [
        0,
        0,
        0,
        0
      ],
      "original": ""
    },
    {
      "command": "text",
      "arguments": [
        0,
        0,
        0,
        0
      ],
      "original": "そして、一緒に勧めてくれるのは、\\n最近の俺のお気に入りの漬物。",
      "tl": "",
      "finished": false
    },
    {
      "command": "text",
      "arguments": [
        0,
        0,
        0,
        0
      ],
      "original": "ご飯の量も茶碗に一杯ではなく６分くらいだし、\\nこのへんも七海だからこそなんだろうな…",
      "tl": "",
      "finished": false
    },
    {
      "command": "bg",
      "arguments": [
        0,
        0,
        0,
        0
      ],
      "data": "AQAAAG5hX3N1X21lc2kwM20A"
    },
    {
      "command": "0x2F",
      "arguments": [
        0,
        2,
        0,
        0
      ],
      "data": ""
    },
    {
      "command": "ogg",
      "arguments": [
        0,
        3,
        0,
        0
      ],
      "data": "c3V6dV8yMDU2Lm9nZwA="
    },
    {
      "command": "name",
      "arguments": [
        0,
        1,
        0,
        0
      ],
      "original": "鈴夏"
    },
    {
      "command": "text",
      "arguments": [
        0,
        0,
        0,
        0
      ],
      "original": "「うーん、さすがだね」",
      "tl": "",
      "finished": false,
      "speaker": "鈴夏",
      "autoQuote": true
    },
    {
      "command": "name",
      "arguments": [
        0,
        0,
        0,
        0
      ],
      "original": ""
    },
    {
      "command": "ogg",
      "arguments": [
        0,
        1,
        0,
        0
      ],
      "data": "bmFuYV8wMzQ0Lm9nZwA="
    },
    {
      "command": "name",
      "arguments": [
        0,
        1,
        0,
        0
      ],
      "original": "七海"
    },
    {
      "command": "text",
      "arguments": [
        0,
        0,
        0,
        0
      ],
      "original": "「鈴夏ちゃん、どうかした？」",
      "tl": "",
      "finished": false,
      "speaker": "七海",
      "autoQuote": true
    },
    {
      "command": "name",
      "arguments": [
        0,
        0,
        0,
        0
      ],
      "original": ""
    },
    {
      "command": "bg",
      "arguments": [
        0,
        0,
        0,
        0
      ],
      "data": "AQAAAG5hX3N1X21lc2kwNG0A"
    },
    {
      "command": "0x2F",
      "arguments": [
        0,
        2,
        0,
        0
      ],
      "data": ""
    },
    {
      "command": "ogg",
      "arguments": [
        0,
        3,
        0,
        0
      ],
      "data": "c3V6dV8yMDU3Lm9nZwA="
    },
    {
      "command": "name",
      "arguments": [
        0,
        1,
        0,
        0
      ],
      "original": "鈴夏"
    },
    {
      "command": "text",
      "arguments": [
        0,
        0,
        0,
        0
      ],
      "original": "「いえいえいえ、なんでもないです」",
      "tl": "",
      "finished": false,
      "speaker": "鈴夏",
      "autoQuote": true
    },
    {
      "command": "name",
      "arguments": [
        0,
        0,
        0,
        0
      ],
      "original": ""
    },
    {
      "command": "bg",
      "arguments": [
        0,
        0,
        0,
        0
      ],
      "data": "AQAAAG5hX3N1X21lc2kwNm0A"
    },
    {
      "command": "0x2F",
      "arguments": [
        0,
        2,
        0,
        0
      ],
      "data": ""
    },
    {
      "command": "text",
      "arguments": [
        0,
        0,
        0,
        0
      ],
      "original": "んなこと言いながらでも、\\n俺の食う様子をチラチラと見る鈴夏。",
      "tl": "",
      "finished": false
    },
    {
      "command": "text",
      "arguments": [
        0,
        0,
        0,
        0
      ],
      "original": "きっとまた、変なことを企んでいるんだろう。",
      "tl": "",
      "finished": false
    },
    {
      "command": "text",
      "arguments": [
        0,
        0,
        0,
        0
      ],
      "original": "このマイシスターだけは、\\n無邪気ってゆーか、子供っぽいとこがあって油断ならない。",
      "tl": "",
      "finished": false
    },
    {
      "command": "text",
      "arguments": [
        0,
        0,
        0,
        0
      ],
      "original": "そんなことを思いながら、\\n俺がひとくちだけお茶に口をつけた時…",
      "tl": "",
      "finished": false
    },
    {
      "command": "bg",
      "arguments": [
        0,
        0,
        0,
        0
      ],
      "data": "AQAAAGJsYWNrAA=="
    },
    {
      "command": "0x2F",
      "arguments": [
        0,
        1,
        0,
        0
      ],
      "data": ""
    },
    {
      "command": "ogg",
      "arguments": [
        0,
        3,
        0,
        0
      ],
      "data": "c3V6dV8yMDU4Lm9nZwA="
    },
    {
      "command": "name",
      "arguments": [
        0,
        1,
        0,
        0
      ],
      "original": "鈴夏"
    },
    {
      "command": "text",
      "arguments": [
        0,
        0,
        0,
        0
      ],
      "original": "「はいはい、お茶ですねー」",
      "tl": "",
      "finished": false,
      "speaker": "鈴夏",
      "autoQuote": true
    },
    {
      "command": "name",
      "arguments": [
        0,
        0,
        0,
        0
      ],
      "original": ""
    },
    {
      "command": "text",
      "arguments": [
        0,
        0,
        0,
        0
      ],
      "original": "どぼどぼどぼっ",
      "tl": "",
      "finished": false
    },
    {
      "command": "name",
      "arguments": [
        0,
        1,
        512,
        0
      ],
      "original": "<FN>"
    },
    {
      "command": "text",
      "arguments": [
        0,
        0,
        0,
        0
      ],
      "original": "「って、こら、まだ飲んでる途中だって」",
      "tl": "",
      "finished": false,
      "speaker": "<FN>",
      "autoQuote": true
    },
    {
      "command": "name",
      "arguments": [
        0,
        0,
        0,
        0
      ],
      "original": ""
    },
    {
      "command": "ogg",
      "arguments": [
        0,
        3,
        0,
        0
      ],
      "data": "c3V6dV8yMDU5Lm9nZwA="
    },
    {
      "command": "name",
      "arguments": [
        0,
        1,
        0,
        0
      ],
      "original": "鈴夏"
    },
    {
      "command": "text",
      "arguments": [
        0,
        0,
        0,
        0
      ],
      "original": "「もう、遠慮しないでよぉ」",
      "tl": "",
      "finished": false,
      "speaker": "鈴夏",
      "autoQuote": true
    },
    {
      "command": "name",
      "arguments": [
        0,
        1,
        512,
        0
      ],
      "original": "<FN>"
    },
    {
      "command": "text",
      "arguments": [
        0,
        0,
        0,
        0
      ],
      "original": "「遠慮じゃねえってっ、つか、溢れてるだろ、おい」",
      "tl": "",
      "finished": false,
      "speaker": "<FN>",
      "autoQuote": true
    },
    {
      "command": "name",
      "arguments": [
        0,
        0,
        0,
        0
      ],
      "original": ""
    },
    {
      "command": "ogg",
      "arguments": [
        0,
        3,
        0,
        0
      ],
      "data": "c3V6dV8yMDYwLm9nZwA="
    },
    {
      "command": "name",
      "arguments": [
        0,
        1,
        0,
        0
      ],
      "original": "鈴夏"
    },
    {
      "command": "text",
      "arguments": [
        0,
        0,
        0,
        0
      ],
      "original": "「あ、ホントだ」",
      "tl": "",
      "finished": false,
      "speaker": "鈴夏",
      "autoQuote": true
    },
    {
      "command": "name",
      "arguments": [
        0,
        0,
        0,
        0
      ],
      "original": ""
    },
    {
      "command": "ogg",
      "arguments": [
        0,
        3,
        0,
        0
      ],
      "data": "c3V6dV8yMDYxLm9nZwA="
    },
    {
      "command": "name",
      "arguments": [
        0,
        1,
        0,
        0
      ],
      "original": "鈴夏"
    },
    {
      "command": "text",
      "arguments": [
        0,
        0,
        0,
        0
      ],
      "original": "「えへへ、失敗失敗…」",
      "tl": "",
      "finished": false,
      "speaker": "鈴夏",
      "autoQuote": true
    },
    {
      "command": "name",
      "arguments": [
        0,
        0,
        0,
        0
      ],
      "original": ""
    },
    {
      "command": "text",
      "arguments": [
        0,
        0,
        0,
        0
      ],
      "original": "もう、鈴夏の奴もしょうがねえな。\\nいっつも無駄に対抗しようとするし。",
      "tl": "",
      "finished": false
    },
    {
      "command": "0x65",
      "arguments": [
        0,
        0,
        25,
        0
      ],
      "data": ""
    },
    {
      "command": "bg",
      "arguments": [
        0,
        0,
        0,
        0
      ],
      "data": "AQAAAGJsYWNrAA=="
    },
    {
      "command": "0x2F",
      "arguments": [
        0,
        2,
        2,
        0
      ],
      "data": "IQAAABAAAAA="
    },
    {
      "command": "bg",
      "arguments": [
        0,
        0,
        0,
        0
      ],
      "data": "AQAAADRfQkdfNDEyZAA="
    },
    {
      "command": "0x2F",
      "arguments": [
        0,
        2,
        2,
        0
      ],
      "data": "IQAAABAAAAA="
    },
    {
      "command": "wav",
      "arguments": [
        0,
        0,
        0,
        0
      ],
      "data": "ejQyLndhdgA="
    },
    {
      "command": "text",
      "arguments": [
        0,
        0,
        0,
        0
      ],
      "original": "ミーンミンミン…",
      "tl": "",
      "finished": false
    },
    {
      "command": "text",
      "arguments": [
        0,
        0,
        0,
        0
      ],
      "original": "今日もよく晴れた夏空。\\nそこら中から聞こえる蝉の声。",
      "tl": "",
      "finished": false
    },
    {
      "command": "music",
      "arguments": [
        0,
        0,
        3,
        1
      ],
      "data": "",
      "music_name": "03_l_02"
    },
    {
      "command": "bg",
      "arguments": [
        0,
        0,
        0,
        0
      ],
      "data": "AQAAAG5hbmFfMTAyMF9hAA=="
    },
    {
      "command": "0x2F",
      "arguments": [
        0,
        2,
        2,
        0
      ],
      "data": "IQAAABAAAAA="
    },
    {
      "command": "ogg",
      "arguments": [
        0,
        1,
        0,
        0
      ],
      "data": "bmFuYV8wMzQ1Lm9nZwA="
    },
    {
      "command": "name",
      "arguments": [
        0,
        1,
        0,
        0
      ],
      "original": "七海"
    },
    {
      "command": "text",
      "arguments": [
        0,
        0,
        0,
        0
      ],
      "original": "「今日も暑いね～」",
      "tl": "",
      "finished": false,
      "speaker": "七海",
      "autoQuote": true
    },
    {
      "command": "name",
      "arguments": [
        0,
        1,
        512,
        0
      ],
      "original": "<FN>"
    },
    {
      "command": "text",
      "arguments": [
        0,
        0,
        0,
        0
      ],
      "original": "「ああ、夏全開って感じだよな～」",
      "tl": "",
      "finished": false,
      "speaker": "<FN>",
      "autoQuote": true
    },
    {
      "command": "name",
      "arguments": [
        0,
        0,
        0,
        0
      ],
      "original": ""
    },
    {
      "command": "text",
      "arguments": [
        0,
        0,
        0,
        0
      ],
      "original": "まだ朝だというのに、\\n強い日射しにアスファルトが焼け、うっすらと揺れる。",
      "tl": "",
      "finished": false
    },
    {
      "command": "text",
      "arguments": [
        0,
        0,
        0,
        0
      ],
      "original": "この調子じゃ、今日も真夏日になりそうだな。",
      "tl": "",
      "finished": false
    },
    {
      "command": "bg",
      "arguments": [
        0,
        0,
        0,
        0
      ],
      "data": "AQAAADFfQkdfMTE4ZAA="
    },
    {
      "command": "0x2F",
      "arguments": [
        0,
        2,
        0,
        0
      ],
      "data": ""
    },
    {
      "command": "figure",
      "arguments": [
        0,
        1,
        0,
        1
      ],
      "data": "bmFuYTFfMW5fYTAycwA="
    },
    {
      "command": "0x2F",
      "arguments": [
        0,
        2,
        0,
        0
      ],
      "data": ""
    },
    {
      "command": "ogg",
      "arguments": [
        0,
        1,
        0,
        0
      ],
      "data": "bmFuYV8wMzQ2Lm9nZwA="
    },
    {
      "command": "name",
      "arguments": [
        0,
        1,
        0,
        0
      ],
      "original": "七海"
    },
    {
      "command": "text",
      "arguments": [
        0,
        0,
        0,
        0
      ],
      "original": "「ねえ、今日はどうしよっか？」",
      "tl": "",
      "finished": false,
      "speaker": "七海",
      "autoQuote": true
    },
    {
      "command": "name",
      "arguments": [
        0,
        1,
        512,
        0
      ],
      "original": "<FN>"
    },
    {
      "command": "text",
      "arguments": [
        0,
        0,
        0,
        0
      ],
      "original": "「そうだな…せっかくだから近道するか」",
      "tl": "",
      "finished": false,
      "speaker": "<FN>",
      "autoQuote": true
    },
    {
      "command": "name",
      "arguments": [
        0,
        0,
        0,
        0
      ],
      "original": ""
    },
    {
      "command": "bg",
      "arguments": [
        0,
        0,
        0,
        0
      ],
      "data": "AQAAADFfQkdfMTA0ZAA="
    },
    {
      "command": "0x34",
      "arguments": [
        0,
        5,
        0,
        0
      ],
      "data": ""
    },
    {
      "command": "0x2F",
      "arguments": [
        0,
        10,
        3,
        0
      ],
      "data": "BQAAACAAAABAAAAA"
    },
    {
      "command": "text",
      "arguments": [
        0,
        0,
        0,
        0
      ],
      "original": "いつもの海辺の道を並んで歩く。",
      "tl": "",
      "finished": false
    },
    {
      "command": "text",
      "arguments": [
        0,
        0,
        0,
        0
      ],
      "original": "昔は、七海だけじゃなくって、\\n鈴夏ともよく登校したもんだけど…",
      "tl": "",
      "finished": false
    },
    {
      "command": "text",
      "arguments": [
        0,
        0,
        0,
        0
      ],
      "original": "今では、部活の朝練の為に、\\nオヤジと先に出掛けることが多くなっていた。",
      "tl": "",
      "finished": false
    },
    {
      "command": "name",
      "arguments": [
        0,
        1,
        512,
        0
      ],
      "original": "<FN>"
    },
    {
      "command": "text",
      "arguments": [
        0,
        0,
        0,
        0
      ],
      "original": "「でも、それ以外は変わらねーよな…」",
      "tl": "",
      "finished": false,
      "speaker": "<FN>",
      "autoQuote": true
    },
    {
      "command": "name",
      "arguments": [
        0,
        0,
        0,
        0
      ],
      "original": ""
    },
    {
      "command": "figure",
      "arguments": [
        0,
        1,
        0,
        1
      ],
      "data": "bmFuYTFfMW5fYjAxcwA="
    },
    {
      "command": "0x2F",
      "arguments": [
        0,
        2,
        0,
        0
      ],
      "data": ""
    },
    {
      "command": "ogg",
      "arguments": [
        0,
        1,
        0,
        0
      ],
      "data": "bmFuYV8wMzQ3Lm9nZwA="
    },
    {
      "command": "name",
      "arguments": [
        0,
        1,
        0,
        0
      ],
      "original": "七海"
    },
    {
      "command": "text",
      "arguments": [
        0,
        0,
        0,
        0
      ],
      "original": "「うん？　なんのこと？」",
      "tl": "",
      "finished": false,
      "speaker": "七海",
      "autoQuote": true
    },
    {
      "command": "name",
      "arguments": [
        0,
        1,
        512,
        0
      ],
      "original": "<FN>"
    },
    {
      "command": "text",
      "arguments": [
        0,
        0,
        0,
        0
      ],
      "original": "「あ、ほら、鈴夏だよ」",
      "tl": "",
      "finished": false,
      "speaker": "<FN>",
      "autoQuote": true
    },
    {
      "command": "text",
      "arguments": [
        0,
        0,
        0,
        0
      ],
      "original": "「相変わらず、子供っぽいってゆーかさ」",
      "tl": "",
      "finished": false,
      "speaker": "<FN>",
      "autoQuote": true
    },
    {
      "command": "name",
      "arguments": [
        0,
        0,
        0,
        0
      ],
      "original": ""
    },
    {
      "command": "figure",
      "arguments": [
        0,
        1,
        0,
        1
      ],
      "data": "bmFuYTFfMW5fYTAzcwA="
    },
    {
      "command": "0x2F",
      "arguments": [
        0,
        2,
        0,
        0
      ],
      "data": ""
    },
    {
      "command": "ogg",
      "arguments": [
        0,
        1,
        0,
        0
      ],
      "data": "bmFuYV8wMzQ4Lm9nZwA="
    },
    {
      "command": "name",
      "arguments": [
        0,
        1,
        0,
        0
      ],
      "original": "七海"
    },
    {
      "command": "text",
      "arguments": [
        0,
        0,
        0,
        0
      ],
      "original": "「あはは、そうかもね」",
      "tl": "",
      "finished": false,
      "speaker": "七海",
      "autoQuote": true
    },
    {
      "command": "name",
      "arguments": [
        0,
        0,
        0,
        0
      ],
      "original": ""
    },
    {
      "command": "text",
      "arguments": [
        0,
        0,
        0,
        0
      ],
      "original": "ここ数年で急に身体つきは大人っぽくなったけど、\\nまだまだ子供っぽいからな…",
      "tl": "",
      "finished": false
    },
    {
      "command": "text",
      "arguments": [
        0,
        0,
        0,
        0
      ],
      "original": "柔道を頑張るのも良いけど、おてんばも程々にしないと、\\n兄としては色々と心配をしてしまう。",
      "tl": "",
      "finished": false
    },
    {
      "command": "bg",
      "arguments": [
        0,
        0,
        0,
        0
      ],
      "data": "AQAAADFfQkdfMTA1ZAA="
    },
    {
      "command": "0x34",
      "arguments": [
        0,
        5,
        0,
        0
      ],
      "data": ""
    },
    {
      "command": "0x2F",
      "arguments": [
        0,
        10,
        3,
        0
      ],
      "data": "BQAAACAAAABAAAAA"
    },
    {
      "command": "text",
      "arguments": [
        0,
        0,
        0,
        0
      ],
      "original": "学校に近づくにつれ、\\nだんだん人の姿が多くなってくる。",
      "tl": "",
      "finished": false
    },
    {
      "command": "text",
      "arguments": [
        0,
        0,
        0,
        0
      ],
      "original": "追い越すやつ、追い越されるやつ、\\nお互いに朝の声をかけあったりして。",
      "tl": "",
      "finished": false
    },
    {
      "command": "name",
      "arguments": [
        0,
        1,
        0,
        0
      ],
      "original": "男生徒Ａ"
    },
    {
      "command": "text",
      "arguments": [
        0,
        0,
        0,
        0
      ],
      "original": "「友坂、おはよう」",
      "tl": "",
      "finished": false,
      "speaker": "男生徒Ａ",
      "autoQuote": true
    },
    {
      "command": "name",
      "arguments": [
        0,
        1,
        512,
        0
      ],
      "original": "<FN>"
    },
    {
      "command": "text",
      "arguments": [
        0,
        0,
        0,
        0
      ],
      "original": "「よう、ちーす」",
      "tl": "",
      "finished": false,
      "speaker": "<FN>",
      "autoQuote": true
    },
    {
      "command": "name",
      "arguments": [
        0,
        0,
        0,
        0
      ],
      "original": ""
    },
    {
      "command": "ogg",
      "arguments": [
        0,
        5,
        0,
        0
      ],
      "data": "ZXRjMV8wMDAyLm9nZwA="
    },
    {
      "command": "name",
      "arguments": [
        0,
        1,
        0,
        0
      ],
      "original": "女徒Ａ"
    },
    {
      "command": "text",
      "arguments": [
        0,
        0,
        0,
        0
      ],
      "original": "「おはよう、近衛さん」",
      "tl": "",
      "finished": false,
      "speaker": "女徒Ａ",
      "autoQuote": true
    },
    {
      "command": "name",
      "arguments": [
        0,
        0,
        0,
        0
      ],
      "original": ""
    },
    {
      "command": "figure",
      "arguments": [
        0,
        1,
        0,
        1
      ],
      "data": "bmFuYTFfMW5fYTAxcwA="
    },
    {
      "command": "0x2F",
      "arguments": [
        0,
        2,
        0,
        0
      ],
      "data": ""
    },
    {
      "command": "ogg",
      "arguments": [
        0,
        1,
        0,
        0
      ],
      "data": "bmFuYV8wMzQ5Lm9nZwA="
    },
    {
      "command": "name",
      "arguments": [
        0,
        1,
        0,
        0
      ],
      "original": "七海"
    },
    {
      "command": "text",
      "arguments": [
        0,
        0,
        0,
        0
      ],
      "original": "「あ、うん、おはよう」",
      "tl": "",
      "finished": false,
      "speaker": "七海",
      "autoQuote": true
    },
    {
      "command": "name",
      "arguments": [
        0,
        0,
        0,
        0
      ],
      "original": ""
    },
    {
      "command": "text",
      "arguments": [
        0,
        0,
        0,
        0
      ],
      "original": "いつもと同じように、\\nお互い、顔見知りに朝の挨拶をかけあう。",
      "tl": "",
      "finished": false
    },
    {
      "command": "ogg",
      "arguments": [
        0,
        5,
        0,
        0
      ],
      "data": "ZXRjMV8wMDAzLm9nZwA="
    },
    {
      "command": "name",
      "arguments": [
        0,
        1,
        0,
        0
      ],
      "original": "女生徒Ａ"
    },
    {
      "command": "text",
      "arguments": [
        0,
        0,
        0,
        0
      ],
      "original": "「相変わらず仲良いわね、お二人さんは」",
      "tl": "",
      "finished": false,
      "speaker": "女生徒Ａ",
      "autoQuote": true
    },
    {
      "command": "name",
      "arguments": [
        0,
        0,
        0,
        0
      ],
      "original": ""
    },
    {
      "command": "figure",
      "arguments": [
        0,
        1,
        0,
        1
      ],
      "data": "bmFuYTFfMW5fYjA2cwA="
    },
    {
      "command": "0x2F",
      "arguments": [
        0,
        2,
        0,
        0
      ],
      "data": ""
    },
    {
      "command": "ogg",
      "arguments": [
        0,
        1,
        0,
        0
      ],
      "data": "bmFuYV8wMzUwLm9nZwA="
    },
    {
      "command": "name",
      "arguments": [
        0,
        1,
        0,
        0
      ],
      "original": "七海"
    },
    {
      "command": "text",
      "arguments": [
        0,
        0,
        0,
        0
      ],
      "original": "「え、えと、まあその…」",
      "tl": "",
      "finished": false,
      "speaker": "七海",
      "autoQuote": true
    },
    {
      "command": "name",
      "arguments": [
        0,
        0,
        0,
        0
      ],
      "original": ""
    },
    {
      "command": "figure",
      "arguments": [
        0,
        1,
        0,
        1
      ],
      "data": "bmFuYTFfMW5fYjA4cwA="
    },
    {
      "command": "0x2F",
      "arguments": [
        0,
        2,
        0,
        0
      ],
      "data": ""
    },
    {
      "command": "name",
      "arguments": [
        0,
        1,
        0,
        0
      ],
      "original": "男生徒Ａ"
    },
    {
      "command": "text",
      "arguments": [
        0,
        0,
        0,
        0
      ],
      "original": "「ほら友坂、奥さんが困ってるぞ」",
      "tl": "",
      "finished": false,
      "speaker": "男生徒Ａ",
      "autoQuote": true
    },
    {
      "command": "name",
      "arguments": [
        0,
        1,
        512,
        0
      ],
      "original": "<FN>"
    },
    {
      "command": "text",
      "arguments": [
        0,
        0,
        0,
        0
      ],
      "original": "「うるせえよ」",
      "tl": "",
      "finished": false,
      "speaker": "<FN>",
      "autoQuote": true
    },
    {
      "command": "name",
      "arguments": [
        0,
        0,
        0,
        0
      ],
      "original": ""
    },
    {
      "command": "text",
      "arguments": [
        0,
        0,
        0,
        0
      ],
      "original": "こんな感じで、たまーに冷やかされたりもする。",
      "tl": "",
      "finished": false
    },
    {
      "command": "text",
      "arguments": [
        0,
        0,
        0,
        0
      ],
      "original": "でもま、それも仕方ないことかもな。\\nこんな小さい町で、ずっと何年も一緒だったんだから。",
      "tl": "",
      "finished": false
    },
    {
      "command": "text",
      "arguments": [
        0,
        0,
        0,
        0
      ],
      "original": "俺はもう慣れちゃってるけど、\\n相変わらず照れくさそうな感じの七海だった。",
      "tl": "",
      "finished": false
    },
    {
      "command": "0x34",
      "arguments": [
        0,
        5,
        0,
        0
      ],
      "data": ""
    },
    {
      "command": "0x2F",
      "arguments": [
        0,
        2,
        0,
        0
      ],
      "data": ""
    },
    {
      "command": "ogg",
      "arguments": [
        0,
        5,
        0,
        0
      ],
      "data": "ZXRjMV8wMDA0Lm9nZwA="
    },
    {
      "command": "name",
      "arguments": [
        0,
        1,
        0,
        0
      ],
      "original": "女生徒Ａ"
    },
    {
      "command": "text",
      "arguments": [
        0,
        0,
        0,
        0
      ],
      "original": "「じゃあね、友坂くん、近衛さん」",
      "tl": "",
      "finished": false,
      "speaker": "女生徒Ａ",
      "autoQuote": true
    },
    {
      "command": "name",
      "arguments": [
        0,
        0,
        0,
        0
      ],
      "original": ""
    },
    {
      "command": "text",
      "arguments": [
        0,
        0,
        0,
        0
      ],
      "original": "いつもの冷やかし混じりの挨拶を交わすと、\\n足早に俺達を追い抜いていくクラスメート達。",
      "tl": "",
      "finished": false
    },
    {
      "command": "text",
      "arguments": [
        0,
        0,
        0,
        0
      ],
      "original": "でも、友坂くんに近衛さんか…\\nその呼ばれ方にちょっと考えてみたりして。",
      "tl": "",
      "finished": false
    },
    {
      "command": "name",
      "arguments": [
        0,
        1,
        512,
        0
      ],
      "original": "<FN>"
    },
    {
      "command": "text",
      "arguments": [
        0,
        0,
        0,
        0
      ],
      "original": "「七海か…」",
      "tl": "",
      "finished": false,
      "speaker": "<FN>",
      "autoQuote": true
    },
    {
      "command": "name",
      "arguments": [
        0,
        0,
        0,
        0
      ],
      "original": ""
    },
    {
      "command": "text",
      "arguments": [
        0,
        0,
        0,
        0
      ],
      "original": "普段から『七海』としか呼ばないからピンと来ないけど、\\n俺はいつから、そう呼ぶようになったのだろうか。",
      "tl": "",
      "finished": false
    },
    {
      "command": "text",
      "arguments": [
        0,
        8192,
        0,
        0
      ],
      "original": "そして、いつから七海も、\\n俺を『<NN>ちゃん』と呼ぶようになったんだろうか…",
      "tl": "",
      "finished": false
    },
    {
      "command": "figure",
      "arguments": [
        0,
        1,
        0,
        1
      ],
      "data": "bmFuYTFfMW5fYTAxcwA="
    },
    {
      "command": "0x2F",
      "arguments": [
        0,
        2,
        0,
        0
      ],
      "data": ""
    },
    {
      "command": "ogg",
      "arguments": [
        0,
        1,
        0,
        0
      ],
      "data": "bmFuYV8wMzUxLm9nZwA="
    },
    {
      "command": "name",
      "arguments": [
        0,
        1,
        0,
        0
      ],
      "original": "七海"
    },
    {
      "command": "text",
      "arguments": [
        0,
        8192,
        0,
        0
      ],
      "original": "「<NN>ちゃん、どうしたの？」",
      "tl": "",
      "finished": false,
      "speaker": "七海",
      "autoQuote": true
    },
    {
      "command": "name",
      "arguments": [
        0,
        1,
        512,
        0
      ],
      "original": "<FN>"
    },
    {
      "command": "text",
      "arguments": [
        0,
        0,
        0,
        0
      ],
      "original": "「なあ、近衛さん」",
      "tl": "",
      "finished": false,
      "speaker": "<FN>",
      "autoQuote": true
    },
    {
      "command": "name",
      "arguments": [
        0,
        0,
        0,
        0
      ],
      "original": ""
    },
    {
      "command": "figure",
      "arguments": [
        0,
        1,
        0,
        1
      ],
      "data": "bmFuYTFfMW5fYjA2cwA="
    },
    {
      "command": "0x2F",
      "arguments": [
        0,
        2,
        0,
        0
      ],
      "data": ""
    },
    {
      "command": "ogg",
      "arguments": [
        0,
        1,
        0,
        0
      ],
      "data": "bmFuYV8wMzUyLm9nZwA="
    },
    {
      "command": "name",
      "arguments": [
        0,
        1,
        0,
        0
      ],
      "original": "七海"
    },
    {
      "command": "text",
      "arguments": [
        0,
        0,
        0,
        0
      ],
      "original": "「えっ、どうしたの急に？」",
      "tl": "",
      "finished": false,
      "speaker": "七海",
      "autoQuote": true
    },
    {
      "command": "name",
      "arguments": [
        0,
        1,
        512,
        0
      ],
      "original": "<FN>"
    },
    {
      "command": "text",
      "arguments": [
        0,
        0,
        0,
        0
      ],
      "original": "「いや、なんとなく言ってみただけ」",
      "tl": "",
      "finished": false,
      "speaker": "<FN>",
      "autoQuote": true
    },
    {
      "command": "name",
      "arguments": [
        0,
        0,
        0,
        0
      ],
      "original": ""
    },
    {
      "command": "figure",
      "arguments": [
        0,
        1,
        0,
        1
      ],
      "data": "bmFuYTFfMW5fYTA4cwA="
    },
    {
      "command": "0x2F",
      "arguments": [
        0,
        2,
        0,
        0
      ],
      "data": ""
    },
    {
      "command": "ogg",
      "arguments": [
        0,
        1,
        0,
        0
      ],
      "data": "bmFuYV8wMzUzLm9nZwA="
    },
    {
      "command": "name",
      "arguments": [
        0,
        1,
        0,
        0
      ],
      "original": "七海"
    },
    {
      "command": "text",
      "arguments": [
        0,
        0,
        0,
        0
      ],
      "original": "「じゃ、じゃあ…と、友坂くん…」",
      "tl": "",
      "finished": false,
      "speaker": "七海",
      "autoQuote": true
    },
    {
      "command": "name",
      "arguments": [
        0,
        1,
        512,
        0
      ],
      "original": "<FN>"
    },
    {
      "command": "text",
      "arguments": [
        0,
        0,
        0,
        0
      ],
      "original": "「えっ………」",
      "tl": "",
      "finished": false,
      "speaker": "<FN>",
      "autoQuote": true
    },
    {
      "command": "name",
      "arguments": [
        0,
        0,
        0,
        0
      ],
      "original": ""
    },
    {
      "command": "ogg",
      "arguments": [
        0,
        1,
        0,
        0
      ],
      "data": "bmFuYV8wMzU1Lm9nZwA="
    },
    {
      "command": "name",
      "arguments": [
        0,
        1,
        0,
        0
      ],
      "original": "七海"
    },
    {
      "command": "text",
      "arguments": [
        0,
        0,
        0,
        0
      ],
      "original": "「……………」",
      "tl": "",
      "finished": false,
      "speaker": "七海",
      "autoQuote": true
    },
    {
      "command": "name",
      "arguments": [
        0,
        0,
        0,
        0
      ],
      "original": ""
    },
    {
      "command": "figure",
      "arguments": [
        0,
        1,
        0,
        1
      ],
      "data": "bmFuYTFfMW5fYTA3cwA="
    },
    {
      "command": "0x2F",
      "arguments": [
        0,
        2,
        0,
        0
      ],
      "data": ""
    },
    {
      "command": "ogg",
      "arguments": [
        0,
        1,
        0,
        0
      ],
      "data": "bmFuYV8wMzU0Lm9nZwA="
    },
    {
      "command": "name",
      "arguments": [
        0,
        1,
        0,
        0
      ],
      "original": "七海"
    },
    {
      "command": "text",
      "arguments": [
        0,
        0,
        0,
        0
      ],
      "original": "「あ…言ってみただけ……」",
      "tl": "",
      "finished": false,
      "speaker": "七海",
      "autoQuote": true
    },
    {
      "command": "name",
      "arguments": [
        0,
        0,
        0,
        0
      ],
      "original": ""
    },
    {
      "command": "0x34",
      "arguments": [
        0,
        5,
        0,
        0
      ],
      "data": ""
    },
    {
      "command": "0x2F",
      "arguments": [
        0,
        2,
        0,
        0
      ],
      "data": ""
    },
    {
      "command": "text",
      "arguments": [
        0,
        0,
        0,
        0
      ],
      "original": "なんか変な感じだな。\\n新鮮とゆーか、照れくさいってゆーか。",
      "tl": "",
      "finished": false
    },
    {
      "command": "name",
      "arguments": [
        0,
        1,
        512,
        0
      ],
      "original": "<FN>"
    },
    {
      "command": "text",
      "arguments": [
        0,
        0,
        0,
        0
      ],
      "original": "「な、なんでもないよ…近衛さん」",
      "tl": "",
      "finished": false,
      "speaker": "<FN>",
      "autoQuote": true
    },
    {
      "command": "name",
      "arguments": [
        0,
        0,
        0,
        0
      ],
      "original": ""
    },
    {
      "command": "ogg",
      "arguments": [
        0,
        1,
        0,
        0
      ],
      "data": "bmFuYV8wMzU2Lm9nZwA="
    },
    {
      "command": "name",
      "arguments": [
        0,
        1,
        0,
        0
      ],
      "original": "七海"
    },
    {
      "command": "text",
      "arguments": [
        0,
        0,
        0,
        0
      ],
      "original": "「う、うん、わかった、友坂くん…」",
      "tl": "",
      "finished": false,
      "speaker": "七海",
      "autoQuote": true
    },
    {
      "command": "name",
      "arguments": [
        0,
        0,
        0,
        0
      ],
      "original": ""
    },
    {
      "command": "bg",
      "arguments": [
        0,
        0,
        0,
        0
      ],
      "data": "AQAAADFfQkdfMTEyZAA="
    },
    {
      "command": "0x2F",
      "arguments": [
        0,
        2,
        2,
        0
      ],
      "data": "IQAAABAAAAA="
    },
    {
      "command": "figure",
      "arguments": [
        0,
        1,
        0,
        1
      ],
      "data": "bmFuYTFfMW5fYTA4cwA="
    },
    {
      "command": "0x2F",
      "arguments": [
        0,
        2,
        0,
        0
      ],
      "data": ""
    },
    {
      "command": "ogg",
      "arguments": [
        0,
        1,
        0,
        0
      ],
      "data": "bmFuYV8wMzU3Lm9nZwA="
    },
    {
      "command": "name",
      "arguments": [
        0,
        1,
        0,
        0
      ],
      "original": "七海"
    },
    {
      "command": "text",
      "arguments": [
        0,
        0,
        0,
        0
      ],
      "original": "「ね、ねえ、友坂くん…」",
      "tl": "",
      "finished": false,
      "speaker": "七海",
      "autoQuote": true
    },
    {
      "command": "name",
      "arguments": [
        0,
        1,
        512,
        0
      ],
      "original": "<FN>"
    },
    {
      "command": "text",
      "arguments": [
        0,
        0,
        0,
        0
      ],
      "original": "「って、もう止めろ、七海でいいじゃん」",
      "tl": "",
      "finished": false,
      "speaker": "<FN>",
      "autoQuote": true
    },
    {
      "command": "name",
      "arguments": [
        0,
        0,
        0,
        0
      ],
      "original": ""
    },
    {
      "command": "figure",
      "arguments": [
        0,
        1,
        0,
        1
      ],
      "data": "bmFuYTFfMW5fYjA4cwA="
    },
    {
      "command": "0x2F",
      "arguments": [
        0,
        2,
        0,
        0
      ],
      "data": ""
    },
    {
      "command": "ogg",
      "arguments": [
        0,
        1,
        0,
        0
      ],
      "data": "bmFuYV8wMzU4Lm9nZwA="
    },
    {
      "command": "name",
      "arguments": [
        0,
        1,
        0,
        0
      ],
      "original": "七海"
    },
    {
      "command": "text",
      "arguments": [
        0,
        0,
        0,
        0
      ],
      "original": "「あはは、うん、そうだね」",
      "tl": "",
      "finished": false,
      "speaker": "七海",
      "autoQuote": true
    },
    {
      "command": "name",
      "arguments": [
        0,
        0,
        0,
        0
      ],
      "original": ""
    },
    {
      "command": "text",
      "arguments": [
        0,
        0,
        0,
        0
      ],
      "original": "ったく、照れるんだったら、\\n最初からとか真似すんなよな、こいつも。",
      "tl": "",
      "finished": false
    },
    {
      "command": "name",
      "arguments": [
        0,
        1,
        512,
        0
      ],
      "original": "<FN>"
    },
    {
      "command": "text",
      "arguments": [
        0,
        0,
        0,
        0
      ],
      "original": "「ほら、それより急ごうぜ」",
      "tl": "",
      "finished": false,
      "speaker": "<FN>",
      "autoQuote": true
    },
    {
      "command": "name",
      "arguments": [
        0,
        0,
        0,
        0
      ],
      "original": ""
    },
    {
      "command": "figure",
      "arguments": [
        0,
        1,
        0,
        1
      ],
      "data": "bmFuYTFfMW5fYTAycwA="
    },
    {
      "command": "0x2F",
      "arguments": [
        0,
        2,
        0,
        0
      ],
      "data": ""
    },
    {
      "command": "ogg",
      "arguments": [
        0,
        1,
        0,
        0
      ],
      "data": "bmFuYV8wMzU5Lm9nZwA="
    },
    {
      "command": "name",
      "arguments": [
        0,
        1,
        0,
        0
      ],
      "original": "七海"
    },
    {
      "command": "text",
      "arguments": [
        0,
        0,
        0,
        0
      ],
      "original": "「うんっ」",
      "tl": "",
      "finished": false,
      "speaker": "七海",
      "autoQuote": true
    },
    {
      "command": "name",
      "arguments": [
        0,
        0,
        0,
        0
      ],
      "original": ""
    },
    {
      "command": "text",
      "arguments": [
        0,
        0,
        0,
        0
      ],
      "original": "また普段と同じように明るく答える七海。",
      "tl": "",
      "finished": false
    },
    {
      "command": "text",
      "arguments": [
        0,
        0,
        0,
        0
      ],
      "original": "きっと相手をどう呼ぶかなんて、\\n気にしなくっても良いのかもな。",
      "tl": "",
      "finished": false
    },
    {
      "command": "text",
      "arguments": [
        0,
        0,
        0,
        0
      ],
      "original": "それに、さっきは鈴夏のことを、\\n変わってないって話していたけど…",
      "tl": "",
      "finished": false
    },
    {
      "command": "text",
      "arguments": [
        0,
        0,
        0,
        0
      ],
      "original": "きっと俺達二人も、変わっていないのだと思う。",
      "tl": "",
      "finished": false
    },
    {
      "command": "0x65",
      "arguments": [
        0,
        0,
        30,
        0
      ],
      "data": ""
    },
    {
      "command": "bg",
      "arguments": [
        0,
        0,
        0,
        0
      ],
      "data": "AQAAADJfQkdfMjMyZAA="
    },
    {
      "command": "0x34",
      "arguments": [
        0,
        5,
        0,
        0
      ],
      "data": ""
    },
    {
      "command": "0x2F",
      "arguments": [
        0,
        11,
        3,
        0
      ],
      "data": "BQAAACAAAABAAAAA"
    },
    {
      "command": "music",
      "arguments": [
        0,
        0,
        5,
        1
      ],
      "data": "",
      "music_name": "05_m04"
    },
    {
      "command": "bg",
      "arguments": [
        0,
        0,
        0,
        0
      ],
      "data": "AQAAADJfQkdfMjM0ZG0A"
    },
    {
      "command": "0x2F",
      "arguments": [
        0,
        10,
        3,
        0
      ],
      "data": "BQAAACAAAABAAAAA"
    },
    {
      "command": "name",
      "arguments": [
        0,
        1,
        0,
        0
      ],
      "original": "端野"
    },
    {
      "command": "text",
      "arguments": [
        0,
        512,
        0,
        0
      ],
      "original": "「おっす、<FN>」",
      "tl": "",
      "finished": false,
      "speaker": "端野",
      "autoQuote": true
    },
    {
      "command": "name",
      "arguments": [
        0,
        0,
        0,
        0
      ],
      "original": ""
    },
    {
      "command": "figure",
      "arguments": [
        0,
        1,
        0,
        1
      ],
      "data": "aGF0YTFfMW5fYTAxAA=="
    },
    {
      "command": "0x2F",
      "arguments": [
        0,
        2,
        0,
        0
      ],
      "data": ""
    },
    {
      "command": "name",
      "arguments": [
        0,
        1,
        512,
        0
      ],
      "original": "<FN>"
    },
    {
      "command": "text",
      "arguments": [
        0,
        0,
        0,
        0
      ],
      "original": "「よお、端野」",
      "tl": "",
      "finished": false,
      "speaker": "<FN>",
      "autoQuote": true
    },
    {
      "command": "name",
      "arguments": [
        0,
        0,
        0,
        0
      ],
      "original": ""
    },
    {
      "command": "figure",
      "arguments": [
        0,
        1,
        0,
        1
      ],
      "data": "aGF0YTFfMW5fYjAxAA=="
    },
    {
      "command": "0x2F",
      "arguments": [
        0,
        2,
        0,
        0
      ],
      "data": ""
    },
    {
      "command": "name",
      "arguments": [
        0,
        1,
        0,
        0
      ],
      "original": "端野"
    },
    {
      "command": "text",
      "arguments": [
        0,
        0,
        0,
        0
      ],
      "original": "「で、今年はどうすんだ？」",
      "tl": "",
      "finished": false,
      "speaker": "端野",
      "autoQuote": true
    },
    {
      "command": "name",
      "arguments": [
        0,
        1,
        512,
        0
      ],
      "original": "<FN>"
    },
    {
      "command": "text",
      "arguments": [
        0,
        0,
        0,
        0
      ],
      "original": "「今年？　なに唐突に言ってんだよ」",
      "tl": "",
      "finished": false,
      "speaker": "<FN>",
      "autoQuote": true
    },
    {
      "command": "name",
      "arguments": [
        0,
        0,
        0,
        0
      ],
      "original": ""
    },
    {
      "command": "figure",
      "arguments": [
        0,
        1,
        0,
        1
      ],
      "data": "aGF0YTFfMW5fYjAyAA=="
    },
    {
      "command": "0x2F",
      "arguments": [
        0,
        2,
        0,
        0
      ],
      "data": ""
    },
    {
      "command": "name",
      "arguments": [
        0,
        1,
        0,
        0
      ],
      "original": "端野"
    },
    {
      "command": "text",
      "arguments": [
        0,
        0,
        0,
        0
      ],
      "original": "「ほら、明後日からの校外学習」",
      "tl": "",
      "finished": false,
      "speaker": "端野",
      "autoQuote": true
    },
    {
      "command": "name",
      "arguments": [
        0,
        1,
        512,
        0
      ],
      "original": "<FN>"
    },
    {
      "command": "text",
      "arguments": [
        0,
        0,
        0,
        0
      ],
      "original": "「ああ、あれか…」",
      "tl": "",
      "finished": false,
      "speaker": "<FN>",
      "autoQuote": true
    },
    {
      "command": "name",
      "arguments": [
        0,
        0,
        0,
        0
      ],
      "original": ""
    },
    {
      "command": "text",
      "arguments": [
        0,
        0,
        0,
        0
      ],
      "original": "『校外学習』なんて言うと難しく聞こえるが、\\n何てことは無い。別に授業や勉強が目的ではなかった。",
      "tl": "",
      "finished": false
    },
    {
      "command": "text",
      "arguments": [
        0,
        0,
        0,
        0
      ],
      "original": "それに、学校主催で行われているとはいえ、\\n基本的に自主参加なので、行かなくても欠席にはならない。",
      "tl": "",
      "finished": false
    },
    {
      "command": "text",
      "arguments": [
        0,
        0,
        0,
        0
      ],
      "original": "まあ、毎年恒例の、\\n１泊２日の遠足みたいなもんだった。",
      "tl": "",
      "finished": false
    },
    {
      "command": "figure",
      "arguments": [
        0,
        1,
        0,
        1
      ],
      "data": "aGF0YTFfMW5fYzAzAA=="
    },
    {
      "command": "0x2F",
      "arguments": [
        0,
        2,
        0,
        0
      ],
      "data": ""
    },
    {
      "command": "name",
      "arguments": [
        0,
        1,
        0,
        0
      ],
      "original": "端野"
    },
    {
      "command": "text",
      "arguments": [
        0,
        0,
        0,
        0
      ],
      "original": "「楽しみだよな～、今年は山上湖のキャンプ場らしいし」",
      "tl": "",
      "finished": false,
      "speaker": "端野",
      "autoQuote": true
    },
    {
      "command": "name",
      "arguments": [
        0,
        0,
        0,
        0
      ],
      "original": ""
    },
    {
      "command": "figure",
      "arguments": [
        0,
        1,
        0,
        1
      ],
      "data": "aGF0YTFfMW5fYTAyAA=="
    },
    {
      "command": "0x2F",
      "arguments": [
        0,
        2,
        0,
        0
      ],
      "data": ""
    },
    {
      "command": "name",
      "arguments": [
        0,
        1,
        0,
        0
      ],
      "original": "端野"
    },
    {
      "command": "text",
      "arguments": [
        0,
        0,
        0,
        0
      ],
      "original": "「海は飽きてるから、林間学校って良いよな？」",
      "tl": "",
      "finished": false,
      "speaker": "端野",
      "autoQuote": true
    },
    {
      "command": "name",
      "arguments": [
        0,
        1,
        512,
        0
      ],
      "original": "<FN>"
    },
    {
      "command": "text",
      "arguments": [
        0,
        0,
        0,
        0
      ],
      "original": "「ん、まあ、そうだな…」",
      "tl": "",
      "finished": false,
      "speaker": "<FN>",
      "autoQuote": true
    },
    {
      "command": "name",
      "arguments": [
        0,
        0,
        0,
        0
      ],
      "original": ""
    },
    {
      "command": "text",
      "arguments": [
        0,
        0,
        0,
        0
      ],
      "original": "やや、力なく返事を返す俺。",
      "tl": "",
      "finished": false
    },
    {
      "command": "text",
      "arguments": [
        0,
        0,
        0,
        0
      ],
      "original": "端野や毎年それを楽しみにしている奴らには悪いが、\\n正直言って、俺は面倒臭いから行きたくなかった。",
      "tl": "",
      "finished": false
    },
    {
      "command": "text",
      "arguments": [
        0,
        0,
        0,
        0
      ],
      "original": "しかし、残念なことに七海も、\\nそれを楽しみにしている一人だったりして…",
      "tl": "",
      "finished": false
    },
    {
      "command": "text",
      "arguments": [
        0,
        0,
        0,
        0
      ],
      "original": "なので、惰性というか、付き合いって感じで、\\n俺も毎年参加しているのが実情だった。",
      "tl": "",
      "finished": false
    },
    {
      "command": "figure",
      "arguments": [
        0,
        1,
        0,
        1
      ],
      "data": "aGF0YTFfMW5fYTAxAA=="
    },
    {
      "command": "0x2F",
      "arguments": [
        0,
        2,
        0,
        0
      ],
      "data": ""
    },
    {
      "command": "name",
      "arguments": [
        0,
        1,
        0,
        0
      ],
      "original": "端野"
    },
    {
      "command": "text",
      "arguments": [
        0,
        0,
        0,
        0
      ],
      "original": "「なんでも今年は、\\n　実行委員もはりきってるってことらしいぜ」",
      "tl": "",
      "finished": false,
      "speaker": "端野",
      "autoQuote": true
    },
    {
      "command": "name",
      "arguments": [
        0,
        1,
        512,
        0
      ],
      "original": "<FN>"
    },
    {
      "command": "text",
      "arguments": [
        0,
        0,
        0,
        0
      ],
      "original": "「ふーん、そりゃまたご苦労だな」",
      "tl": "",
      "finished": false,
      "speaker": "<FN>",
      "autoQuote": true
    },
    {
      "command": "name",
      "arguments": [
        0,
        0,
        0,
        0
      ],
      "original": ""
    },
    {
      "command": "figure",
      "arguments": [
        0,
        1,
        0,
        1
      ],
      "data": "aGF0YTFfMW5fYTAyAA=="
    },
    {
      "command": "0x2F",
      "arguments": [
        0,
        2,
        0,
        0
      ],
      "data": ""
    },
    {
      "command": "name",
      "arguments": [
        0,
        1,
        0,
        0
      ],
      "original": "端野"
    },
    {
      "command": "text",
      "arguments": [
        0,
        0,
        0,
        0
      ],
      "original": "「聞いた噂じゃ、フォークダンスも予定されてるとか」",
      "tl": "",
      "finished": false,
      "speaker": "端野",
      "autoQuote": true
    },
    {
      "command": "name",
      "arguments": [
        0,
        1,
        512,
        0
      ],
      "original": "<FN>"
    },
    {
      "command": "text",
      "arguments": [
        0,
        0,
        0,
        0
      ],
      "original": "「はあ、フォークダンスねえ…」",
      "tl": "",
      "finished": false,
      "speaker": "<FN>",
      "autoQuote": true
    },
    {
      "command": "name",
      "arguments": [
        0,
        0,
        0,
        0
      ],
      "original": ""
    },
    {
      "command": "text",
      "arguments": [
        0,
        0,
        0,
        0
      ],
      "original": "またまた力なく返事をかえす俺。",
      "tl": "",
      "finished": false
    },
    {
      "command": "figure",
      "arguments": [
        0,
        1,
        0,
        1
      ],
      "data": "aGF0YTFfMW5fYzAzAA=="
    },
    {
      "command": "0x2F",
      "arguments": [
        0,
        2,
        0,
        0
      ],
      "data": ""
    },
    {
      "command": "name",
      "arguments": [
        0,
        1,
        0,
        0
      ],
      "original": "端野"
    },
    {
      "command": "text",
      "arguments": [
        0,
        0,
        0,
        0
      ],
      "original": "「楽しみだよな～、\\n　俺なんて女の子と手を繋いで踊り狂っちゃうよ」",
      "tl": "",
      "finished": false,
      "speaker": "端野",
      "autoQuote": true
    },
    {
      "command": "name",
      "arguments": [
        0,
        0,
        0,
        0
      ],
      "original": ""
    },
    {
      "command": "0x34",
      "arguments": [
        0,
        5,
        0,
        0
      ],
      "data": ""
    },
    {
      "command": "0x2F",
      "arguments": [
        0,
        2,
        0,
        0
      ],
      "data": ""
    },
    {
      "command": "text",
      "arguments": [
        0,
        0,
        0,
        0
      ],
      "original": "なにが、ふぉーくだんすだよ。\\n子供じゃねえっつーの。",
      "tl": "",
      "finished": false
    },
    {
      "command": "text",
      "arguments": [
        0,
        0,
        0,
        0
      ],
      "original": "第一、男女比が同じだったら良いけど、\\n野郎が多い時は悲惨だぞ。男同士でオクラホマミキサとか。",
      "tl": "",
      "finished": false
    },
    {
      "command": "0x65",
      "arguments": [
        0,
        0,
        25,
        0
      ],
      "data": ""
    },
    {
      "command": "bg",
      "arguments": [
        0,
        0,
        0,
        0
      ],
      "data": "AQAAAEJMQUNLAA=="
    },
    {
      "command": "0x2F",
      "arguments": [
        0,
        10,
        3,
        0
      ],
      "data": "BQAAACAAAABAAAAA"
    },
    {
      "command": "text",
      "arguments": [
        0,
        0,
        0,
        0
      ],
      "original": "カリカリカリ…",
      "tl": "",
      "finished": false
    },
    {
      "command": "text",
      "arguments": [
        0,
        0,
        0,
        0
      ],
      "original": "今日もシャーペンの走る音が教室に響いていた。",
      "tl": "",
      "finished": false
    },
    {
      "command": "bg",
      "arguments": [
        0,
        0,
        0,
        0
      ],
      "data": "AQAAAG5hbmFfMTA0MF9iMQA="
    },
    {
      "command": "0x2F",
      "arguments": [
        0,
        10,
        3,
        0
      ],
      "data": "BQAAACAAAABAAAAA"
    },
    {
      "command": "music",
      "arguments": [
        0,
        0,
        13,
        1
      ],
      "data": "",
      "music_name": "13_Ａi02"
    },
    {
      "command": "text",
      "arguments": [
        0,
        0,
        0,
        0
      ],
      "original": "まったりとした授業中…とゆーか、自習中。",
      "tl": "",
      "finished": false
    },
    {
      "command": "text",
      "arguments": [
        0,
        0,
        0,
        0
      ],
      "original": "プリントだけ配って、後は自習とか言いやがるし。\\n夏休み前で、先生までものんびりしているのだろうか？",
      "tl": "",
      "finished": false
    },
    {
      "command": "name",
      "arguments": [
        0,
        1,
        512,
        0
      ],
      "original": "<FN>"
    },
    {
      "command": "text",
      "arguments": [
        0,
        0,
        0,
        0
      ],
      "original": "「まあいいや…」",
      "tl": "",
      "finished": false,
      "speaker": "<FN>",
      "autoQuote": true
    },
    {
      "command": "name",
      "arguments": [
        0,
        0,
        0,
        0
      ],
      "original": ""
    },
    {
      "command": "text",
      "arguments": [
        0,
        0,
        0,
        0
      ],
      "original": "せっかく時間があるんだし、\\nなんかヒマ潰しするかな…",
      "tl": "",
      "finished": false
    },
    {
      "command": "choice",
      "arguments": [
        0,
        2,
        0,
        0
      ],
      "original": [
        "プリントをする（オモテ面）",
        "プリントをする（ウラ面）"
      ],
      "tl": [
        "",
        ""
      ],
      "finished": false
    },
    {
      "command": "branch",
      "arguments": [
        21210,
        0,
        1,
        1
      ],
      "data": "",
      "jump": 2
    },
    {
      "command": "load_script",
      "arguments": [
        0,
        1122,
        0,
        0
      ],
      "data": "",
      "script_name": "01nana02_01_01"
    },
    {
      "command": "branch",
      "arguments": [
        21282,
        0,
        2,
        1
      ],
      "data": "",
      "jump": 3
    },
    {
      "command": "0x1C",
      "arguments": [
        0,
        61,
        1,
        0
      ],
      "data": ""
    },
    {
      "command": "load_script",
      "arguments": [
        0,
        1123,
        0,
        0
      ],
      "data": "",
      "script_name": "01nana02_01_02"
    },
    {
      "command": "exit",
      "arguments": [
        -1,
        0,
        0,
        0
      ],
      "data": ""
    }
  ]
}