{
  "lines": [
    {
      "command": "window_title",
      "arguments": [
        0,
        0,
        0,
        0
      ],
      "original": "七海　７月１２日",
      "tl": "",
      "finished": false
    },
    {
      "command": "name",
      "arguments": [
        0,
        1,
        512,
        0
      ],
      "original": "<FN>"
    },
    {
      "command": "text",
      "arguments": [
        0,
        0,
        0,
        0
      ],
      "original": "「ふう～、しょうがねえな…」",
      "tl": "",
      "finished": false,
      "speaker": "<FN>",
      "autoQuote": true
    },
    {
      "command": "name",
      "arguments": [
        0,
        0,
        0,
        0
      ],
      "original": ""
    },
    {
      "command": "text",
      "arguments": [
        0,
        0,
        0,
        0
      ],
      "original": "補習っていっても、確か２週間ほどだったし、\\nそれが終わってからでも、夏休みはまだまだある。",
      "tl": "",
      "finished": false
    },
    {
      "command": "name",
      "arguments": [
        0,
        1,
        512,
        0
      ],
      "original": "<FN>"
    },
    {
      "command": "text",
      "arguments": [
        0,
        0,
        0,
        0
      ],
      "original": "「付き合ってやるよ」",
      "tl": "",
      "finished": false,
      "speaker": "<FN>",
      "autoQuote": true
    },
    {
      "command": "name",
      "arguments": [
        0,
        0,
        0,
        0
      ],
      "original": ""
    },
    {
      "command": "figure",
      "arguments": [
        0,
        1,
        0,
        1
      ],
      "data": "bmFuYTFfMW5fYTAycwA="
    },
    {
      "command": "0x2F",
      "arguments": [
        0,
        2,
        0,
        0
      ],
      "data": ""
    },
    {
      "command": "ogg",
      "arguments": [
        0,
        1,
        0,
        0
      ],
      "data": "bmFuYV8wNzM5Lm9nZwA="
    },
    {
      "command": "name",
      "arguments": [
        0,
        1,
        0,
        0
      ],
      "original": "七海"
    },
    {
      "command": "text",
      "arguments": [
        0,
        0,
        0,
        0
      ],
      "original": "「くすっ、嘘だよーん」",
      "tl": "",
      "finished": false,
      "speaker": "七海",
      "autoQuote": true
    },
    {
      "command": "name",
      "arguments": [
        0,
        1,
        512,
        0
      ],
      "original": "<FN>"
    },
    {
      "command": "text",
      "arguments": [
        0,
        0,
        0,
        0
      ],
      "original": "「へ？　ウソ？」",
      "tl": "",
      "finished": false,
      "speaker": "<FN>",
      "autoQuote": true
    },
    {
      "command": "name",
      "arguments": [
        0,
        0,
        0,
        0
      ],
      "original": ""
    },
    {
      "command": "figure",
      "arguments": [
        0,
        1,
        0,
        1
      ],
      "data": "bmFuYTFfMW5fYzAzcwA="
    },
    {
      "command": "0x2F",
      "arguments": [
        0,
        2,
        0,
        0
      ],
      "data": ""
    },
    {
      "command": "ogg",
      "arguments": [
        0,
        1,
        0,
        0
      ],
      "data": "bmFuYV8wNzQwLm9nZwA="
    },
    {
      "command": "name",
      "arguments": [
        0,
        1,
        0,
        0
      ],
      "original": "七海"
    },
    {
      "command": "text",
      "arguments": [
        0,
        0,
        0,
        0
      ],
      "original": "「えへへ、本当はバッチシ大丈夫だって」",
      "tl": "",
      "finished": false,
      "speaker": "七海",
      "autoQuote": true
    },
    {
      "command": "name",
      "arguments": [
        0,
        1,
        512,
        0
      ],
      "original": "<FN>"
    },
    {
      "command": "text",
      "arguments": [
        0,
        0,
        0,
        0
      ],
      "original": "「て、てめえ…」",
      "tl": "",
      "finished": false,
      "speaker": "<FN>",
      "autoQuote": true
    },
    {
      "command": "name",
      "arguments": [
        0,
        0,
        0,
        0
      ],
      "original": ""
    },
    {
      "command": "text",
      "arguments": [
        0,
        0,
        0,
        0
      ],
      "original": "よ・く・も七海のくせにナマイキなぁ～\\n思わず、ちょっとでも同情した俺が…",
      "tl": "",
      "finished": false
    },
    {
      "command": "text",
      "arguments": [
        0,
        0,
        0,
        0
      ],
      "original": "いや、七海なんぞに騙されたと思うと、\\nそっちの方が情けないかも知れない。",
      "tl": "",
      "finished": false
    },
    {
      "command": "name",
      "arguments": [
        0,
        1,
        512,
        0
      ],
      "original": "<FN>"
    },
    {
      "command": "text",
      "arguments": [
        0,
        0,
        0,
        0
      ],
      "original": "「こいつめ～、おらっ」",
      "tl": "",
      "finished": false,
      "speaker": "<FN>",
      "autoQuote": true
    },
    {
      "command": "name",
      "arguments": [
        0,
        0,
        0,
        0
      ],
      "original": ""
    },
    {
      "command": "wav",
      "arguments": [
        0,
        0,
        0,
        0
      ],
      "data": "cGVzaXBlc2kud2F2AA=="
    },
    {
      "command": "text",
      "arguments": [
        0,
        4,
        0,
        0
      ],
      "original": "ぺしぺし、",
      "tl": "",
      "finished": false
    },
    {
      "command": "figure",
      "arguments": [
        0,
        1,
        0,
        1
      ],
      "data": "bmFuYTFfMW5fYjA5cwA="
    },
    {
      "command": "0x2F",
      "arguments": [
        0,
        1,
        0,
        0
      ],
      "data": ""
    },
    {
      "command": "0x31",
      "arguments": [
        0,
        1,
        0,
        0
      ],
      "data": ""
    },
    {
      "command": "0x2F",
      "arguments": [
        0,
        5,
        2,
        0
      ],
      "data": "FAAAAAgAAAA="
    },
    {
      "command": "0x31",
      "arguments": [
        0,
        0,
        0,
        0
      ],
      "data": ""
    },
    {
      "command": "0x16",
      "arguments": [
        0,
        1,
        0,
        0
      ],
      "data": ""
    },
    {
      "command": "ogg",
      "arguments": [
        0,
        1,
        0,
        0
      ],
      "data": "bmFuYV8wNzQxLm9nZwA="
    },
    {
      "command": "name",
      "arguments": [
        0,
        1,
        0,
        0
      ],
      "original": "七海"
    },
    {
      "command": "text",
      "arguments": [
        0,
        0,
        0,
        0
      ],
      "original": "「いたた、ごめんって」",
      "tl": "",
      "finished": false,
      "speaker": "七海",
      "autoQuote": true
    },
    {
      "command": "name",
      "arguments": [
        0,
        1,
        512,
        0
      ],
      "original": "<FN>"
    },
    {
      "command": "text",
      "arguments": [
        0,
        0,
        0,
        0
      ],
      "original": "「この俺を騙そうなんて、１０００年ほど早いわっ」",
      "tl": "",
      "finished": false,
      "speaker": "<FN>",
      "autoQuote": true
    },
    {
      "command": "name",
      "arguments": [
        0,
        0,
        0,
        0
      ],
      "original": ""
    },
    {
      "command": "figure",
      "arguments": [
        0,
        1,
        0,
        1
      ],
      "data": "bmFuYTFfMW5fYTA5cwA="
    },
    {
      "command": "0x2F",
      "arguments": [
        0,
        2,
        0,
        0
      ],
      "data": ""
    },
    {
      "command": "ogg",
      "arguments": [
        0,
        1,
        0,
        0
      ],
      "data": "bmFuYV8wNzQyLm9nZwA="
    },
    {
      "command": "name",
      "arguments": [
        0,
        1,
        0,
        0
      ],
      "original": "七海"
    },
    {
      "command": "text",
      "arguments": [
        0,
        0,
        0,
        0
      ],
      "original": "「うぅ、そっちだって、\\n　いつも騙してばっかりのくせにぃ」",
      "tl": "",
      "finished": false,
      "speaker": "七海",
      "autoQuote": true
    },
    {
      "command": "name",
      "arguments": [
        0,
        1,
        512,
        0
      ],
      "original": "<FN>"
    },
    {
      "command": "text",
      "arguments": [
        0,
        0,
        0,
        0
      ],
      "original": "「まだ言うのは、この口かっ」",
      "tl": "",
      "finished": false,
      "speaker": "<FN>",
      "autoQuote": true
    },
    {
      "command": "name",
      "arguments": [
        0,
        0,
        0,
        0
      ],
      "original": ""
    },
    {
      "command": "0x34",
      "arguments": [
        0,
        1,
        0,
        0
      ],
      "data": ""
    },
    {
      "command": "bg",
      "arguments": [
        0,
        0,
        0,
        0
      ],
      "data": "AQAAAEJMQUNLAA=="
    },
    {
      "command": "0x2F",
      "arguments": [
        0,
        1,
        0,
        0
      ],
      "data": ""
    },
    {
      "command": "0x2F",
      "arguments": [
        0,
        5,
        2,
        0
      ],
      "data": "IQAAAAgAAAA="
    },
    {
      "command": "text",
      "arguments": [
        0,
        0,
        0,
        0
      ],
      "original": "ぎゅうぎゅう～",
      "tl": "",
      "finished": false
    },
    {
      "command": "ogg",
      "arguments": [
        0,
        1,
        0,
        0
      ],
      "data": "bmFuYV8wNzQzLm9nZwA="
    },
    {
      "command": "name",
      "arguments": [
        0,
        1,
        0,
        0
      ],
      "original": "七海"
    },
    {
      "command": "text",
      "arguments": [
        0,
        0,
        0,
        0
      ],
      "original": "「ごふぇんなさい、もうしましぇんから」",
      "tl": "",
      "finished": false,
      "speaker": "七海",
      "autoQuote": true
    },
    {
      "command": "name",
      "arguments": [
        0,
        0,
        0,
        0
      ],
      "original": ""
    },
    {
      "command": "bg",
      "arguments": [
        0,
        0,
        0,
        0
      ],
      "data": "AQAAADJfQkdfMjM0ZG0A"
    },
    {
      "command": "figure",
      "arguments": [
        0,
        1,
        0,
        1
      ],
      "data": "bmFuYTFfMW5fYTA5cwA="
    },
    {
      "command": "0x2F",
      "arguments": [
        0,
        2,
        0,
        0
      ],
      "data": ""
    },
    {
      "command": "text",
      "arguments": [
        0,
        0,
        0,
        0
      ],
      "original": "てなことを今は言ってるけど、\\n絶対にまた対抗するのも七海のパターンだった。",
      "tl": "",
      "finished": false
    },
    {
      "command": "text",
      "arguments": [
        0,
        0,
        0,
        0
      ],
      "original": "ったく、いい加減に懲りろよな～\\n変なところで、いっつも無駄に張り合いやがって。",
      "tl": "",
      "finished": false
    },
    {
      "command": "0x34",
      "arguments": [
        0,
        1,
        0,
        0
      ],
      "data": ""
    },
    {
      "command": "bg",
      "arguments": [
        0,
        0,
        0,
        0
      ],
      "data": "AQAAAEJMQUNLAA=="
    },
    {
      "command": "0x2F",
      "arguments": [
        0,
        10,
        3,
        0
      ],
      "data": "BQAAACAAAABAAAAA"
    },
    {
      "command": "load_script",
      "arguments": [
        0,
        1184,
        0,
        0
      ],
      "data": "",
      "script_name": "01nana07_02"
    },
    {
      "command": "exit",
      "arguments": [
        -1,
        0,
        0,
        0
      ],
      "data": ""
    }
  ]
}