{
  "lines": [
    {
      "command": "window_title",
      "arguments": [
        0,
        0,
        0,
        0
      ],
      "original": "緊急回避選択",
      "tl": "Urgent Evasion Choice",
      "finished": false
    },
    {
      "command": "0x63",
      "arguments": [
        0,
        0,
        0,
        0
      ],
      "data": ""
    },
    {
      "command": "bg",
      "arguments": [
        0,
        0,
        0,
        0
      ],
      "data": "AQAAAGJsYWNrAA=="
    },
    {
      "command": "0x2F",
      "arguments": [
        0,
        2,
        2,
        0
      ],
      "data": "IQAAABAAAAA="
    },
    {
      "command": "text",
      "arguments": [
        0,
        0,
        0,
        0
      ],
      "original": "まだ、続けますか？",
      "tl": "Will you view another?",
      "finished": false
    },
    {
      "command": "choice",
      "arguments": [
        0,
        3,
        0,
        0
      ],
      "original": [
        "・じゃじゃ馬億万長者",
        "・ガラスの仮面がみてる",
        "・もうやめる"
      ],
      "tl": [
        "Troublesome billionaire",
        "",
        "Finished"
      ],
      "finished": false
    },
    {
      "command": "branch",
      "arguments": [
        299,
        0,
        1,
        1
      ],
      "data": "",
      "jump": 2
    },
    {
      "command": "load_script",
      "arguments": [
        0,
        741,
        0,
        0
      ],
      "data": "",
      "script_name": "nendo0"
    },
    {
      "command": "branch",
      "arguments": [
        347,
        0,
        2,
        1
      ],
      "data": "",
      "jump": 2
    },
    {
      "command": "load_script",
      "arguments": [
        0,
        731,
        0,
        0
      ],
      "data": "",
      "script_name": "garasu0"
    },
    {
      "command": "branch",
      "arguments": [
        395,
        0,
        3,
        1
      ],
      "data": "",
      "jump": 2
    },
    {
      "command": "0x06",
      "arguments": [
        0,
        0,
        0,
        0
      ],
      "data": ""
    },
    {
      "command": "exit",
      "arguments": [
        -1,
        0,
        0,
        0
      ],
      "data": ""
    }
  ]
}