{
  "lines": [
    {
      "command": "window_title",
      "arguments": [
        0,
        0,
        0,
        0
      ],
      "original": "子供時代",
      "tl": "Childhood",
      "finished": false
    },
    {
      "command": "name",
      "arguments": [
        0,
        1,
        512,
        0
      ],
      "original": "<FN>"
    },
    {
      "command": "text",
      "arguments": [
        0,
        0,
        0,
        0
      ],
      "original": "「しょうがねえな」",
      "tl": "I guess I'll come along.",
      "finished": false,
      "speaker": "<FN>",
      "autoQuote": true
    },
    {
      "command": "name",
      "arguments": [
        0,
        0,
        0,
        0
      ],
      "original": ""
    },
    {
      "command": "text",
      "arguments": [
        0,
        0,
        0,
        0
      ],
      "original": "まあ、暇だから、つきあってやろうかな。\\nでかいヤドカリでも見つかればめっけものだしな。",
      "tl": "Well, I have some free time anyway, so I'll accompany them. I might even luck out and find a huge hermit crab.",
      "finished": false
    },
    {
      "command": "figure",
      "arguments": [
        0,
        2,
        0,
        1
      ],
      "data": "bmFuYTFfMG5fYjAzAA=="
    },
    {
      "command": "0x2F",
      "arguments": [
        0,
        2,
        0,
        0
      ],
      "data": ""
    },
    {
      "command": "ogg",
      "arguments": [
        0,
        1,
        0,
        0
      ],
      "data": "bmFuYV81NTMzLm9nZwA="
    },
    {
      "command": "name",
      "arguments": [
        0,
        1,
        0,
        0
      ],
      "original": "七海"
    },
    {
      "command": "text",
      "arguments": [
        0,
        0,
        0,
        0
      ],
      "original": "「わーい」",
      "tl": "Yay!",
      "finished": false,
      "speaker": "七海",
      "autoQuote": true
    },
    {
      "command": "name",
      "arguments": [
        0,
        0,
        0,
        0
      ],
      "original": ""
    },
    {
      "command": "figure",
      "arguments": [
        0,
        0,
        0,
        1
      ],
      "data": "aGlrYTFfMG5fYjAzAA=="
    },
    {
      "command": "0x2F",
      "arguments": [
        0,
        2,
        0,
        0
      ],
      "data": ""
    },
    {
      "command": "ogg",
      "arguments": [
        0,
        2,
        0,
        0
      ],
      "data": "aGlrYV8wMDI3Lm9nZwA="
    },
    {
      "command": "name",
      "arguments": [
        0,
        1,
        0,
        0
      ],
      "original": "ひかり"
    },
    {
      "command": "text",
      "arguments": [
        0,
        0,
        0,
        0
      ],
      "original": "「それじゃ、バケツ持ってきてね」",
      "tl": "I'll go grab a bucket then.",
      "finished": false,
      "speaker": "ひかり",
      "autoQuote": true
    },
    {
      "command": "name",
      "arguments": [
        0,
        0,
        0,
        0
      ],
      "original": ""
    },
    {
      "command": "bg",
      "arguments": [
        0,
        0,
        0,
        0
      ],
      "data": "AQAAAGJsYWNrAA=="
    },
    {
      "command": "0x34",
      "arguments": [
        0,
        5,
        0,
        0
      ],
      "data": ""
    },
    {
      "command": "0x2F",
      "arguments": [
        0,
        2,
        2,
        0
      ],
      "data": "IQAAABAAAAA="
    },
    {
      "command": "0x38",
      "arguments": [
        0,
        0,
        0,
        0
      ],
      "data": ""
    },
    {
      "command": "0x38",
      "arguments": [
        0,
        2,
        0,
        0
      ],
      "data": ""
    },
    {
      "command": "load_script",
      "arguments": [
        0,
        2011,
        0,
        0
      ],
      "data": "",
      "script_name": "hika_child_01"
    },
    {
      "command": "exit",
      "arguments": [
        -1,
        0,
        0,
        0
      ],
      "data": ""
    }
  ]
}