{
  "lines": [
    {
      "command": "0x30",
      "arguments": [
        0,
        4,
        0,
        0
      ],
      "data": "DwAAAAoAAAAQAAAAEAAAAA=="
    },
    {
      "command": "window_title",
      "arguments": [
        0,
        0,
        0,
        0
      ],
      "original": "鈴夏　アフター",
      "tl": "",
      "finished": false
    },
    {
      "command": "0x59",
      "arguments": [
        0,
        0,
        0,
        0
      ],
      "data": ""
    },
    {
      "command": "0x42",
      "arguments": [
        0,
        0,
        0,
        0
      ],
      "data": ""
    },
    {
      "command": "0x34",
      "arguments": [
        0,
        5,
        0,
        0
      ],
      "data": ""
    },
    {
      "command": "0x2F",
      "arguments": [
        0,
        2,
        0,
        0
      ],
      "data": ""
    },
    {
      "command": "0x64",
      "arguments": [
        0,
        0,
        0,
        0
      ],
      "data": ""
    },
    {
      "command": "music",
      "arguments": [
        0,
        0,
        13,
        1
      ],
      "data": "",
      "music_name": "13_Ａi02"
    },
    {
      "command": "text",
      "arguments": [
        0,
        0,
        0,
        0
      ],
      "original": "とある日の昼下がり。",
      "tl": "",
      "finished": false
    },
    {
      "command": "text",
      "arguments": [
        0,
        0,
        0,
        0
      ],
      "original": "俺と鈴夏は居間で昼飯を取っていた。",
      "tl": "",
      "finished": false
    },
    {
      "command": "bg",
      "arguments": [
        0,
        0,
        0,
        0
      ],
      "data": "AQAAADJfQkdfMjA5ZAA="
    },
    {
      "command": "0x2F",
      "arguments": [
        0,
        2,
        2,
        0
      ],
      "data": "IQAAABAAAAA="
    },
    {
      "command": "figure",
      "arguments": [
        0,
        1,
        0,
        1
      ],
      "data": "c3V6dTFfM3NfYTAxbQA="
    },
    {
      "command": "0x2F",
      "arguments": [
        0,
        2,
        0,
        0
      ],
      "data": ""
    },
    {
      "command": "ogg",
      "arguments": [
        0,
        3,
        0,
        0
      ],
      "data": "c3V6dV8xNjMzLm9nZwA="
    },
    {
      "command": "name",
      "arguments": [
        0,
        1,
        0,
        0
      ],
      "original": "鈴夏"
    },
    {
      "command": "text",
      "arguments": [
        0,
        0,
        0,
        0
      ],
      "original": "「お兄ちゃん…おみそ汁のお代わりはどう？」",
      "tl": "",
      "finished": false,
      "speaker": "鈴夏",
      "autoQuote": true
    },
    {
      "command": "name",
      "arguments": [
        0,
        1,
        512,
        0
      ],
      "original": "<FN>"
    },
    {
      "command": "text",
      "arguments": [
        0,
        0,
        0,
        0
      ],
      "original": "「うん、もらおうかな」",
      "tl": "",
      "finished": false,
      "speaker": "<FN>",
      "autoQuote": true
    },
    {
      "command": "name",
      "arguments": [
        0,
        0,
        0,
        0
      ],
      "original": ""
    },
    {
      "command": "figure",
      "arguments": [
        0,
        1,
        0,
        1
      ],
      "data": "c3V6dTFfM3NfYjAzbQA="
    },
    {
      "command": "0x2F",
      "arguments": [
        0,
        2,
        0,
        0
      ],
      "data": ""
    },
    {
      "command": "ogg",
      "arguments": [
        0,
        3,
        0,
        0
      ],
      "data": "c3V6dV8xNjM0Lm9nZwA="
    },
    {
      "command": "name",
      "arguments": [
        0,
        1,
        0,
        0
      ],
      "original": "鈴夏"
    },
    {
      "command": "text",
      "arguments": [
        0,
        0,
        0,
        0
      ],
      "original": "「はい、お兄ちゃん」",
      "tl": "",
      "finished": false,
      "speaker": "鈴夏",
      "autoQuote": true
    },
    {
      "command": "name",
      "arguments": [
        0,
        1,
        512,
        0
      ],
      "original": "<FN>"
    },
    {
      "command": "text",
      "arguments": [
        0,
        0,
        0,
        0
      ],
      "original": "「おう、サンキュー」",
      "tl": "",
      "finished": false,
      "speaker": "<FN>",
      "autoQuote": true
    },
    {
      "command": "name",
      "arguments": [
        0,
        0,
        0,
        0
      ],
      "original": ""
    },
    {
      "command": "text",
      "arguments": [
        0,
        0,
        0,
        0
      ],
      "original": "ばくばく。",
      "tl": "",
      "finished": false
    },
    {
      "command": "text",
      "arguments": [
        0,
        0,
        0,
        0
      ],
      "original": "ん～やっぱり、鈴夏のメシは美味いなぁ。",
      "tl": "",
      "finished": false
    },
    {
      "command": "figure",
      "arguments": [
        0,
        1,
        0,
        1
      ],
      "data": "c3V6dTFfM3NfYTAxbQA="
    },
    {
      "command": "0x2F",
      "arguments": [
        0,
        2,
        0,
        0
      ],
      "data": ""
    },
    {
      "command": "ogg",
      "arguments": [
        0,
        3,
        0,
        0
      ],
      "data": "c3V6dV8xNjM1Lm9nZwA="
    },
    {
      "command": "name",
      "arguments": [
        0,
        1,
        0,
        0
      ],
      "original": "鈴夏"
    },
    {
      "command": "text",
      "arguments": [
        0,
        0,
        0,
        0
      ],
      "original": "「お兄ちゃんて、美味しそうにご飯を食べるよね」",
      "tl": "",
      "finished": false,
      "speaker": "鈴夏",
      "autoQuote": true
    },
    {
      "command": "name",
      "arguments": [
        0,
        1,
        512,
        0
      ],
      "original": "<FN>"
    },
    {
      "command": "text",
      "arguments": [
        0,
        0,
        0,
        0
      ],
      "original": "「美味そうじゃなくて、本当に美味いからな」",
      "tl": "",
      "finished": false,
      "speaker": "<FN>",
      "autoQuote": true
    },
    {
      "command": "name",
      "arguments": [
        0,
        0,
        0,
        0
      ],
      "original": ""
    },
    {
      "command": "figure",
      "arguments": [
        0,
        1,
        0,
        1
      ],
      "data": "c3V6dTFfM3NfYjIxbXQA"
    },
    {
      "command": "0x2F",
      "arguments": [
        0,
        2,
        0,
        0
      ],
      "data": ""
    },
    {
      "command": "ogg",
      "arguments": [
        0,
        3,
        0,
        0
      ],
      "data": "c3V6dV8xNjM2Lm9nZwA="
    },
    {
      "command": "name",
      "arguments": [
        0,
        1,
        0,
        0
      ],
      "original": "鈴夏"
    },
    {
      "command": "text",
      "arguments": [
        0,
        0,
        0,
        0
      ],
      "original": "「…あ、ありがとう」",
      "tl": "",
      "finished": false,
      "speaker": "鈴夏",
      "autoQuote": true
    },
    {
      "command": "name",
      "arguments": [
        0,
        0,
        0,
        0
      ],
      "original": ""
    },
    {
      "command": "text",
      "arguments": [
        0,
        0,
        0,
        0
      ],
      "original": "恥ずかしげに頬を染める鈴夏。",
      "tl": "",
      "finished": false
    },
    {
      "command": "text",
      "arguments": [
        0,
        0,
        0,
        0
      ],
      "original": "くぅ～可愛いじゃねぇか。",
      "tl": "",
      "finished": false
    },
    {
      "command": "name",
      "arguments": [
        0,
        1,
        512,
        0
      ],
      "original": "<FN>"
    },
    {
      "command": "text",
      "arguments": [
        0,
        0,
        0,
        0
      ],
      "original": "「この後は外出する予定はあるのか？」",
      "tl": "",
      "finished": false,
      "speaker": "<FN>",
      "autoQuote": true
    },
    {
      "command": "name",
      "arguments": [
        0,
        0,
        0,
        0
      ],
      "original": ""
    },
    {
      "command": "figure",
      "arguments": [
        0,
        1,
        0,
        1
      ],
      "data": "c3V6dTFfM3NfYTAxbQA="
    },
    {
      "command": "0x2F",
      "arguments": [
        0,
        2,
        0,
        0
      ],
      "data": ""
    },
    {
      "command": "ogg",
      "arguments": [
        0,
        3,
        0,
        0
      ],
      "data": "c3V6dV8xNjM3Lm9nZwA="
    },
    {
      "command": "name",
      "arguments": [
        0,
        1,
        0,
        0
      ],
      "original": "鈴夏"
    },
    {
      "command": "text",
      "arguments": [
        0,
        0,
        0,
        0
      ],
      "original": "「ううん。特にはないけど…」",
      "tl": "",
      "finished": false,
      "speaker": "鈴夏",
      "autoQuote": true
    },
    {
      "command": "name",
      "arguments": [
        0,
        0,
        0,
        0
      ],
      "original": ""
    },
    {
      "command": "figure",
      "arguments": [
        0,
        1,
        0,
        1
      ],
      "data": "c3V6dTFfM3NfYTIybQA="
    },
    {
      "command": "0x2F",
      "arguments": [
        0,
        2,
        0,
        0
      ],
      "data": ""
    },
    {
      "command": "ogg",
      "arguments": [
        0,
        3,
        0,
        0
      ],
      "data": "c3V6dV8xNjM4Lm9nZwA="
    },
    {
      "command": "name",
      "arguments": [
        0,
        1,
        0,
        0
      ],
      "original": "鈴夏"
    },
    {
      "command": "text",
      "arguments": [
        0,
        0,
        0,
        0
      ],
      "original": "「でも、それがどうかしたの？」",
      "tl": "",
      "finished": false,
      "speaker": "鈴夏",
      "autoQuote": true
    },
    {
      "command": "name",
      "arguments": [
        0,
        1,
        512,
        0
      ],
      "original": "<FN>"
    },
    {
      "command": "text",
      "arguments": [
        0,
        0,
        0,
        0
      ],
      "original": "「いや深い意味はない。\\n　ありふれた、世間話とでも思ってくれ」",
      "tl": "",
      "finished": false,
      "speaker": "<FN>",
      "autoQuote": true
    },
    {
      "command": "name",
      "arguments": [
        0,
        0,
        0,
        0
      ],
      "original": ""
    },
    {
      "command": "figure",
      "arguments": [
        0,
        1,
        0,
        1
      ],
      "data": "c3V6dTFfM3NfYjIybQA="
    },
    {
      "command": "0x2F",
      "arguments": [
        0,
        2,
        0,
        0
      ],
      "data": ""
    },
    {
      "command": "ogg",
      "arguments": [
        0,
        3,
        0,
        0
      ],
      "data": "c3V6dV8xNjM5Lm9nZwA="
    },
    {
      "command": "name",
      "arguments": [
        0,
        1,
        0,
        0
      ],
      "original": "鈴夏"
    },
    {
      "command": "text",
      "arguments": [
        0,
        0,
        0,
        0
      ],
      "original": "「う、うん…」",
      "tl": "",
      "finished": false,
      "speaker": "鈴夏",
      "autoQuote": true
    },
    {
      "command": "name",
      "arguments": [
        0,
        1,
        512,
        0
      ],
      "original": "<FN>"
    },
    {
      "command": "text",
      "arguments": [
        0,
        0,
        0,
        0
      ],
      "original": "「んじゃ、ごっそうさーん」",
      "tl": "",
      "finished": false,
      "speaker": "<FN>",
      "autoQuote": true
    },
    {
      "command": "name",
      "arguments": [
        0,
        0,
        0,
        0
      ],
      "original": ""
    },
    {
      "command": "0x34",
      "arguments": [
        0,
        1,
        0,
        0
      ],
      "data": ""
    },
    {
      "command": "bg",
      "arguments": [
        0,
        0,
        0,
        0
      ],
      "data": "AQAAAGJsYWNrAA=="
    },
    {
      "command": "0x2F",
      "arguments": [
        0,
        2,
        2,
        0
      ],
      "data": "IQAAABAAAAA="
    },
    {
      "command": "text",
      "arguments": [
        0,
        0,
        0,
        0
      ],
      "original": "・",
      "tl": "",
      "finished": false
    },
    {
      "command": "text",
      "arguments": [
        0,
        0,
        0,
        0
      ],
      "original": "・・",
      "tl": "",
      "finished": false
    },
    {
      "command": "text",
      "arguments": [
        0,
        0,
        0,
        0
      ],
      "original": "・・・",
      "tl": "",
      "finished": false
    },
    {
      "command": "bg",
      "arguments": [
        0,
        0,
        0,
        0
      ],
      "data": "AQAAADJfQkdfMjAzZC0wMQA="
    },
    {
      "command": "0x2F",
      "arguments": [
        0,
        2,
        2,
        0
      ],
      "data": "IQAAABAAAAA="
    },
    {
      "command": "name",
      "arguments": [
        0,
        1,
        512,
        0
      ],
      "original": "<FN>"
    },
    {
      "command": "text",
      "arguments": [
        0,
        0,
        0,
        0
      ],
      "original": "「いよいよ届くのは今日だよな」",
      "tl": "",
      "finished": false,
      "speaker": "<FN>",
      "autoQuote": true
    },
    {
      "command": "name",
      "arguments": [
        0,
        0,
        0,
        0
      ],
      "original": ""
    },
    {
      "command": "text",
      "arguments": [
        0,
        0,
        0,
        0
      ],
      "original": "間違いない。",
      "tl": "",
      "finished": false
    },
    {
      "command": "text",
      "arguments": [
        0,
        0,
        0,
        0
      ],
      "original": "カレンダーの今日の日付に、\\n花丸がついているしな。",
      "tl": "",
      "finished": false
    },
    {
      "command": "wav",
      "arguments": [
        0,
        0,
        0,
        0
      ],
      "data": "ejAwMTIud2F2AA=="
    },
    {
      "command": "text",
      "arguments": [
        0,
        0,
        0,
        0
      ],
      "original": "ピンポ～ン",
      "tl": "",
      "finished": false
    },
    {
      "command": "name",
      "arguments": [
        0,
        1,
        0,
        0
      ],
      "original": "宅配便"
    },
    {
      "command": "text",
      "arguments": [
        0,
        0,
        0,
        0
      ],
      "original": "「お荷物をお届けに参りました～」",
      "tl": "",
      "finished": false,
      "speaker": "宅配便",
      "autoQuote": true
    },
    {
      "command": "name",
      "arguments": [
        0,
        0,
        0,
        0
      ],
      "original": ""
    },
    {
      "command": "text",
      "arguments": [
        0,
        0,
        0,
        0
      ],
      "original": "待ってましたーっ！",
      "tl": "",
      "finished": false
    },
    {
      "command": "bg",
      "arguments": [
        0,
        0,
        0,
        0
      ],
      "data": "AQAAADJfQkdfMjA4ZAA="
    },
    {
      "command": "0x2F",
      "arguments": [
        0,
        10,
        3,
        0
      ],
      "data": "BQAAACAAAABAAAAA"
    },
    {
      "command": "bg",
      "arguments": [
        0,
        0,
        0,
        0
      ],
      "data": "AQAAADJfQkdfMjA0ZAA="
    },
    {
      "command": "0x2F",
      "arguments": [
        0,
        10,
        3,
        0
      ],
      "data": "BQAAACAAAABAAAAA"
    },
    {
      "command": "name",
      "arguments": [
        0,
        1,
        512,
        0
      ],
      "original": "<FN>"
    },
    {
      "command": "text",
      "arguments": [
        0,
        0,
        0,
        0
      ],
      "original": "「はーい」",
      "tl": "",
      "finished": false,
      "speaker": "<FN>",
      "autoQuote": true
    },
    {
      "command": "name",
      "arguments": [
        0,
        1,
        0,
        0
      ],
      "original": "宅配便"
    },
    {
      "command": "text",
      "arguments": [
        0,
        0,
        0,
        0
      ],
      "original": "「では、判子をお願いできますか」",
      "tl": "",
      "finished": false,
      "speaker": "宅配便",
      "autoQuote": true
    },
    {
      "command": "name",
      "arguments": [
        0,
        1,
        512,
        0
      ],
      "original": "<FN>"
    },
    {
      "command": "text",
      "arguments": [
        0,
        0,
        0,
        0
      ],
      "original": "「はい。えっと、ここですね」",
      "tl": "",
      "finished": false,
      "speaker": "<FN>",
      "autoQuote": true
    },
    {
      "command": "name",
      "arguments": [
        0,
        1,
        0,
        0
      ],
      "original": "宅配便"
    },
    {
      "command": "text",
      "arguments": [
        0,
        0,
        0,
        0
      ],
      "original": "「はい、ありがとうございました」",
      "tl": "",
      "finished": false,
      "speaker": "宅配便",
      "autoQuote": true
    },
    {
      "command": "name",
      "arguments": [
        0,
        0,
        0,
        0
      ],
      "original": ""
    },
    {
      "command": "bg",
      "arguments": [
        0,
        0,
        0,
        0
      ],
      "data": "AQAAADJfQkdfMjAzZC0wMQA="
    },
    {
      "command": "0x2F",
      "arguments": [
        0,
        10,
        3,
        0
      ],
      "data": "BQAAACAAAABAAAAA"
    },
    {
      "command": "name",
      "arguments": [
        0,
        1,
        512,
        0
      ],
      "original": "<FN>"
    },
    {
      "command": "text",
      "arguments": [
        0,
        0,
        0,
        0
      ],
      "original": "「よしよし。ようやく届いたな」",
      "tl": "",
      "finished": false,
      "speaker": "<FN>",
      "autoQuote": true
    },
    {
      "command": "name",
      "arguments": [
        0,
        0,
        0,
        0
      ],
      "original": ""
    },
    {
      "command": "text",
      "arguments": [
        0,
        0,
        0,
        0
      ],
      "original": "それは、端野から教えてもらった、特殊通販ショップ。",
      "tl": "",
      "finished": false
    },
    {
      "command": "wav",
      "arguments": [
        0,
        0,
        0,
        0
      ],
      "data": "RkFOMi53YXYA"
    },
    {
      "command": "0x2C",
      "arguments": [
        0,
        35,
        37,
        0
      ],
      "data": ""
    },
    {
      "command": "text",
      "arguments": [
        0,
        0,
        0,
        0
      ],
      "original": "Ｇｒｅａｔ　Ｋｉｎｇ　Ｏｆ　Ｅｒｏ",
      "tl": "",
      "finished": false
    },
    {
      "command": "0x2D",
      "arguments": [
        0,
        0,
        0,
        0
      ],
      "data": ""
    },
    {
      "command": "0x13",
      "arguments": [
        0,
        1000,
        0,
        0
      ],
      "data": ""
    },
    {
      "command": "text",
      "arguments": [
        0,
        0,
        0,
        0
      ],
      "original": "からの発送物だったりする。",
      "tl": "",
      "finished": false
    },
    {
      "command": "wav",
      "arguments": [
        0,
        0,
        0,
        0
      ],
      "data": "Z2FzYWdvc28yLndhdgA="
    },
    {
      "command": "text",
      "arguments": [
        0,
        0,
        0,
        0
      ],
      "original": "ガサゴソガサ",
      "tl": "",
      "finished": false
    },
    {
      "command": "name",
      "arguments": [
        0,
        1,
        512,
        0
      ],
      "original": "<FN>"
    },
    {
      "command": "text",
      "arguments": [
        0,
        0,
        0,
        0
      ],
      "original": "「おしっ、これこれ」",
      "tl": "",
      "finished": false,
      "speaker": "<FN>",
      "autoQuote": true
    },
    {
      "command": "name",
      "arguments": [
        0,
        0,
        0,
        0
      ],
      "original": ""
    },
    {
      "command": "text",
      "arguments": [
        0,
        0,
        0,
        0
      ],
      "original": "箱の中から一着の水着を取り出す。",
      "tl": "",
      "finished": false
    },
    {
      "command": "text",
      "arguments": [
        0,
        0,
        0,
        0
      ],
      "original": "パッと見には、普通の水着にすぎないが、その正体はっ！",
      "tl": "",
      "finished": false
    },
    {
      "command": "wav",
      "arguments": [
        0,
        0,
        0,
        0
      ],
      "data": "c3Aud2F2AA=="
    },
    {
      "command": "text",
      "arguments": [
        0,
        0,
        0,
        0
      ],
      "original": "超薄地の布で作られた、透け透け水着。",
      "tl": "",
      "finished": false
    },
    {
      "command": "text",
      "arguments": [
        0,
        0,
        0,
        0
      ],
      "original": "通称『スケミズ』だったりするのだ。",
      "tl": "",
      "finished": false
    },
    {
      "command": "text",
      "arguments": [
        0,
        0,
        0,
        0
      ],
      "original": "ターゲットはもちろん、鈴夏。",
      "tl": "",
      "finished": false
    },
    {
      "command": "text",
      "arguments": [
        0,
        0,
        0,
        0
      ],
      "original": "今日はオヤジもいないし、もはや後顧の憂いはないっ。",
      "tl": "",
      "finished": false
    },
    {
      "command": "text",
      "arguments": [
        0,
        0,
        0,
        0
      ],
      "original": "残された問題は、いかにして着せるかだろう。",
      "tl": "",
      "finished": false
    },
    {
      "command": "text",
      "arguments": [
        0,
        0,
        0,
        0
      ],
      "original": "だが、軽率な行動を取るべきではない。",
      "tl": "",
      "finished": false
    },
    {
      "command": "text",
      "arguments": [
        0,
        0,
        0,
        0
      ],
      "original": "ここは一つ鈴夏の性格を考慮して、\\n作戦を立てるべきだろう。",
      "tl": "",
      "finished": false
    },
    {
      "command": "load_script",
      "arguments": [
        0,
        3504,
        0,
        0
      ],
      "data": "",
      "script_name": "17suzu_oero1_01"
    },
    {
      "command": "branchflag",
      "arguments": [
        5136,
        1,
        0,
        0
      ],
      "data": "IAAAAA==",
      "jump": 2
    },
    {
      "command": "load_script",
      "arguments": [
        0,
        3505,
        0,
        0
      ],
      "data": "",
      "script_name": "17suzu_oero1_02"
    },
    {
      "command": "exit",
      "arguments": [
        -1,
        0,
        0,
        0
      ],
      "data": ""
    }
  ]
}