{
  "lines": [
    {
      "command": "window_title",
      "arguments": [
        0,
        0,
        0,
        0
      ],
      "original": "ひかり　７月９日",
      "tl": "Hikari ～ July 9th",
      "finished": false
    },
    {
      "command": "bg",
      "arguments": [
        0,
        0,
        0,
        0
      ],
      "data": "AQAAAGJsYWNrAA=="
    },
    {
      "command": "0x34",
      "arguments": [
        0,
        1,
        0,
        0
      ],
      "data": ""
    },
    {
      "command": "0x2F",
      "arguments": [
        0,
        10,
        3,
        0
      ],
      "data": "BQAAACAAAABAAAAA"
    },
    {
      "command": "bg",
      "arguments": [
        0,
        0,
        0,
        0
      ],
      "data": "AQAAADJfQkdfMjA3bi0xAA=="
    },
    {
      "command": "0x2F",
      "arguments": [
        0,
        2,
        2,
        0
      ],
      "data": "IQAAABAAAAA="
    },
    {
      "command": "0x13",
      "arguments": [
        0,
        1000,
        0,
        0
      ],
      "data": ""
    },
    {
      "command": "bg",
      "arguments": [
        0,
        0,
        0,
        0
      ],
      "data": "AQAAADJfYmdfMjA3ZDIA"
    },
    {
      "command": "0x2F",
      "arguments": [
        0,
        2,
        2,
        0
      ],
      "data": "IQAAABAAAAA="
    },
    {
      "command": "text",
      "arguments": [
        0,
        0,
        0,
        0
      ],
      "original": "ひかりにおん出されて手持ち無沙汰だったので、\\nとりあえずガレージに来てバイクをいじくっている。",
      "tl": "",
      "finished": false
    },
    {
      "command": "name",
      "arguments": [
        0,
        1,
        512,
        0
      ],
      "original": "<FN>"
    },
    {
      "command": "text",
      "arguments": [
        0,
        0,
        0,
        0
      ],
      "original": "「ああ、ここもダメになってるか。\\n　交換しかないかな」",
      "tl": "",
      "finished": false,
      "speaker": "<FN>",
      "autoQuote": true
    },
    {
      "command": "name",
      "arguments": [
        0,
        0,
        0,
        0
      ],
      "original": ""
    },
    {
      "command": "wav",
      "arguments": [
        0,
        0,
        0,
        0
      ],
      "data": "a2lrYWkxLndhdgA="
    },
    {
      "command": "text",
      "arguments": [
        0,
        0,
        0,
        0
      ],
      "original": "カチャカチャ",
      "tl": "",
      "finished": false
    },
    {
      "command": "ogg",
      "arguments": [
        0,
        2,
        0,
        0
      ],
      "data": "aGlrYV8wNjI5Lm9nZwA="
    },
    {
      "command": "name",
      "arguments": [
        0,
        1,
        0,
        0
      ],
      "original": "ひかり"
    },
    {
      "command": "text",
      "arguments": [
        0,
        0,
        0,
        0
      ],
      "original": "「ご飯できたわよ～」",
      "tl": "",
      "finished": false,
      "speaker": "ひかり",
      "autoQuote": true
    },
    {
      "command": "name",
      "arguments": [
        0,
        0,
        0,
        0
      ],
      "original": ""
    },
    {
      "command": "bg",
      "arguments": [
        0,
        0,
        0,
        0
      ],
      "data": "AQAAADJfQkdfMjA3bi0xAA=="
    },
    {
      "command": "0x2F",
      "arguments": [
        0,
        2,
        2,
        0
      ],
      "data": "IQAAABAAAAA="
    },
    {
      "command": "figure",
      "arguments": [
        0,
        1,
        0,
        1
      ],
      "data": "aGlrYTFfM3NfYjA1AA=="
    },
    {
      "command": "0x2F",
      "arguments": [
        0,
        2,
        0,
        0
      ],
      "data": ""
    },
    {
      "command": "text",
      "arguments": [
        0,
        0,
        0,
        0
      ],
      "original": "作業する手を止めて振り向くと、\\nガレージまで俺を呼びに来たひかりがいた。",
      "tl": "",
      "finished": false
    },
    {
      "command": "text",
      "arguments": [
        0,
        0,
        0,
        0
      ],
      "original": "ひかりは、いかにも会心のものができたわよ～、\\nって表情をしている。",
      "tl": "",
      "finished": false
    },
    {
      "command": "text",
      "arguments": [
        0,
        0,
        0,
        0
      ],
      "original": "まあ俺のほうもこれくらい腹が減っていれば、\\nひかりの作る辛い料理も旨く感じるはずだ。",
      "tl": "",
      "finished": false
    },
    {
      "command": "text",
      "arguments": [
        0,
        0,
        0,
        0
      ],
      "original": "…そうあってほしいぞ。",
      "tl": "",
      "finished": false
    },
    {
      "command": "bg",
      "arguments": [
        0,
        0,
        0,
        0
      ],
      "data": "AQAAAGJsYWNrAA=="
    },
    {
      "command": "0x34",
      "arguments": [
        0,
        1,
        0,
        0
      ],
      "data": ""
    },
    {
      "command": "0x2F",
      "arguments": [
        0,
        10,
        3,
        0
      ],
      "data": "BQAAACAAAABAAAAA"
    },
    {
      "command": "name",
      "arguments": [
        0,
        1,
        512,
        0
      ],
      "original": "<FN>"
    },
    {
      "command": "text",
      "arguments": [
        0,
        0,
        0,
        0
      ],
      "original": "「ん？　これは、けっこう…」",
      "tl": "",
      "finished": false,
      "speaker": "<FN>",
      "autoQuote": true
    },
    {
      "command": "name",
      "arguments": [
        0,
        0,
        0,
        0
      ],
      "original": ""
    },
    {
      "command": "text",
      "arguments": [
        0,
        0,
        0,
        0
      ],
      "original": "玄関から家に入ると、\\n海鮮スープのようないい匂いが部屋に充満していた。",
      "tl": "",
      "finished": false
    },
    {
      "command": "bg",
      "arguments": [
        0,
        0,
        0,
        0
      ],
      "data": "AQAAAGdvaGFuX2hpa2FfdG9tMQA="
    },
    {
      "command": "0x2F",
      "arguments": [
        0,
        10,
        3,
        0
      ],
      "data": "BQAAACAAAABAAAAA"
    },
    {
      "command": "name",
      "arguments": [
        0,
        1,
        512,
        0
      ],
      "original": "<FN>"
    },
    {
      "command": "text",
      "arguments": [
        0,
        0,
        0,
        0
      ],
      "original": "「じゃあ、いただきます」",
      "tl": "",
      "finished": false,
      "speaker": "<FN>",
      "autoQuote": true
    },
    {
      "command": "name",
      "arguments": [
        0,
        0,
        0,
        0
      ],
      "original": ""
    },
    {
      "command": "ogg",
      "arguments": [
        0,
        2,
        0,
        0
      ],
      "data": "aGlrYV8wNjMxLm9nZwA="
    },
    {
      "command": "name",
      "arguments": [
        0,
        1,
        0,
        0
      ],
      "original": "ひかり"
    },
    {
      "command": "text",
      "arguments": [
        0,
        0,
        0,
        0
      ],
      "original": "「はい、どうぞめしあがれ」",
      "tl": "",
      "finished": false,
      "speaker": "ひかり",
      "autoQuote": true
    },
    {
      "command": "name",
      "arguments": [
        0,
        0,
        0,
        0
      ],
      "original": ""
    },
    {
      "command": "text",
      "arguments": [
        0,
        0,
        0,
        0
      ],
      "original": "さて、鬼が出るか蛇が出るか…",
      "tl": "",
      "finished": false
    },
    {
      "command": "text",
      "arguments": [
        0,
        0,
        0,
        0
      ],
      "original": "ぱくっ\\nもぐもぐもぐもぐ…",
      "tl": "",
      "finished": false
    },
    {
      "command": "text",
      "arguments": [
        0,
        0,
        0,
        0
      ],
      "original": "………",
      "tl": "",
      "finished": false
    },
    {
      "command": "ogg",
      "arguments": [
        0,
        2,
        0,
        0
      ],
      "data": "aGlrYV8wNjMyLm9nZwA="
    },
    {
      "command": "name",
      "arguments": [
        0,
        1,
        0,
        0
      ],
      "original": "ひかり"
    },
    {
      "command": "text",
      "arguments": [
        0,
        0,
        0,
        0
      ],
      "original": "「どう？」",
      "tl": "",
      "finished": false,
      "speaker": "ひかり",
      "autoQuote": true
    },
    {
      "command": "name",
      "arguments": [
        0,
        1,
        512,
        0
      ],
      "original": "<FN>"
    },
    {
      "command": "text",
      "arguments": [
        0,
        0,
        0,
        0
      ],
      "original": "「…うまい」",
      "tl": "",
      "finished": false,
      "speaker": "<FN>",
      "autoQuote": true
    },
    {
      "command": "name",
      "arguments": [
        0,
        0,
        0,
        0
      ],
      "original": ""
    },
    {
      "command": "bg",
      "arguments": [
        0,
        0,
        0,
        0
      ],
      "data": "AQAAAGdvaGFuX2hpa2FfdG9tMgA="
    },
    {
      "command": "0x2F",
      "arguments": [
        0,
        2,
        2,
        0
      ],
      "data": "IQAAABAAAAA="
    },
    {
      "command": "ogg",
      "arguments": [
        0,
        2,
        0,
        0
      ],
      "data": "aGlrYV8wNjMzLm9nZwA="
    },
    {
      "command": "name",
      "arguments": [
        0,
        1,
        0,
        0
      ],
      "original": "ひかり"
    },
    {
      "command": "text",
      "arguments": [
        0,
        0,
        0,
        0
      ],
      "original": "「そうでしょ」",
      "tl": "",
      "finished": false,
      "speaker": "ひかり",
      "autoQuote": true
    },
    {
      "command": "name",
      "arguments": [
        0,
        0,
        0,
        0
      ],
      "original": ""
    },
    {
      "command": "text",
      "arguments": [
        0,
        0,
        0,
        0
      ],
      "original": "ひかりの作ったものがここまで旨いとは…\\n結構意外だった。",
      "tl": "",
      "finished": false
    },
    {
      "command": "ogg",
      "arguments": [
        0,
        2,
        0,
        0
      ],
      "data": "aGlrYV8wNjM0Lm9nZwA="
    },
    {
      "command": "name",
      "arguments": [
        0,
        1,
        0,
        0
      ],
      "original": "ひかり"
    },
    {
      "command": "text",
      "arguments": [
        0,
        0,
        0,
        0
      ],
      "original": "「街でお店開いたら、\\n　若く美しき名人とかで紹介されそうでしょ」",
      "tl": "",
      "finished": false,
      "speaker": "ひかり",
      "autoQuote": true
    },
    {
      "command": "name",
      "arguments": [
        0,
        1,
        512,
        0
      ],
      "original": "<FN>"
    },
    {
      "command": "text",
      "arguments": [
        0,
        0,
        0,
        0
      ],
      "original": "「そこまで言うのは大げさだ」",
      "tl": "",
      "finished": false,
      "speaker": "<FN>",
      "autoQuote": true
    },
    {
      "command": "name",
      "arguments": [
        0,
        0,
        0,
        0
      ],
      "original": ""
    },
    {
      "command": "text",
      "arguments": [
        0,
        0,
        0,
        0
      ],
      "original": "だけどたしかに美味い。\\n辛いけど、味を感じられる辛さというか…",
      "tl": "",
      "finished": false
    },
    {
      "command": "bg",
      "arguments": [
        0,
        0,
        0,
        0
      ],
      "data": "AQAAAGJsYWNrAA=="
    },
    {
      "command": "0x2F",
      "arguments": [
        0,
        2,
        2,
        0
      ],
      "data": "IQAAABAAAAA="
    },
    {
      "command": "text",
      "arguments": [
        0,
        0,
        0,
        0
      ],
      "original": "ぱくぱくぱくぱく\\nもぐもぐもぐもぐ",
      "tl": "",
      "finished": false
    },
    {
      "command": "text",
      "arguments": [
        0,
        0,
        0,
        0
      ],
      "original": "………",
      "tl": "",
      "finished": false
    },
    {
      "command": "text",
      "arguments": [
        0,
        0,
        0,
        0
      ],
      "original": "なんかあっという間にたいらげてしまった。",
      "tl": "",
      "finished": false
    },
    {
      "command": "ogg",
      "arguments": [
        0,
        2,
        0,
        0
      ],
      "data": "aGlrYV8wNjM1Lm9nZwA="
    },
    {
      "command": "name",
      "arguments": [
        0,
        1,
        0,
        0
      ],
      "original": "ひかり"
    },
    {
      "command": "text",
      "arguments": [
        0,
        0,
        0,
        0
      ],
      "original": "「おかわりあるけど、食べる？」",
      "tl": "",
      "finished": false,
      "speaker": "ひかり",
      "autoQuote": true
    },
    {
      "command": "name",
      "arguments": [
        0,
        1,
        512,
        0
      ],
      "original": "<FN>"
    },
    {
      "command": "text",
      "arguments": [
        0,
        0,
        0,
        0
      ],
      "original": "「おう」",
      "tl": "",
      "finished": false,
      "speaker": "<FN>",
      "autoQuote": true
    },
    {
      "command": "name",
      "arguments": [
        0,
        0,
        0,
        0
      ],
      "original": ""
    },
    {
      "command": "bg",
      "arguments": [
        0,
        0,
        0,
        0
      ],
      "data": "AQAAAGdvaGFuX2hpa2FfdG9tMQA="
    },
    {
      "command": "0x2F",
      "arguments": [
        0,
        2,
        2,
        0
      ],
      "data": "IQAAABAAAAA="
    },
    {
      "command": "name",
      "arguments": [
        0,
        1,
        512,
        0
      ],
      "original": "<FN>"
    },
    {
      "command": "text",
      "arguments": [
        0,
        0,
        0,
        0
      ],
      "original": "「それじゃ、またいただきますっと」",
      "tl": "",
      "finished": false,
      "speaker": "<FN>",
      "autoQuote": true
    },
    {
      "command": "name",
      "arguments": [
        0,
        0,
        0,
        0
      ],
      "original": ""
    },
    {
      "command": "text",
      "arguments": [
        0,
        0,
        0,
        0
      ],
      "original": "ぱくぱくぱくぱく\\nもぐもぐもぐもぐ",
      "tl": "",
      "finished": false
    },
    {
      "command": "bg",
      "arguments": [
        0,
        0,
        0,
        0
      ],
      "data": "AQAAAGJsYWNrAA=="
    },
    {
      "command": "0x2F",
      "arguments": [
        0,
        2,
        2,
        0
      ],
      "data": "IQAAABAAAAA="
    },
    {
      "command": "name",
      "arguments": [
        0,
        1,
        512,
        0
      ],
      "original": "<FN>"
    },
    {
      "command": "text",
      "arguments": [
        0,
        0,
        0,
        0
      ],
      "original": "「ふぅ～、食った食った」",
      "tl": "",
      "finished": false,
      "speaker": "<FN>",
      "autoQuote": true
    },
    {
      "command": "name",
      "arguments": [
        0,
        0,
        0,
        0
      ],
      "original": ""
    },
    {
      "command": "text",
      "arguments": [
        0,
        0,
        0,
        0
      ],
      "original": "しっかしあいつにはまともなスキルもあったんだなあ。\\nちょっと感心。",
      "tl": "",
      "finished": false
    },
    {
      "command": "bg",
      "arguments": [
        0,
        0,
        0,
        0
      ],
      "data": "AQAAAGJsYWNrAA=="
    },
    {
      "command": "0x2F",
      "arguments": [
        0,
        2,
        2,
        0
      ],
      "data": "IQAAABAAAAA="
    },
    {
      "command": "0x64",
      "arguments": [
        0,
        0,
        0,
        0
      ],
      "data": ""
    },
    {
      "command": "load_script",
      "arguments": [
        0,
        2158,
        0,
        0
      ],
      "data": "",
      "script_name": "hika_05_04"
    },
    {
      "command": "exit",
      "arguments": [
        -1,
        0,
        0,
        0
      ],
      "data": ""
    }
  ]
}