{
  "lines": [
    {
      "command": "window_title",
      "arguments": [
        0,
        0,
        0,
        0
      ],
      "original": "七海　七海スペシャル",
      "tl": "",
      "finished": false
    },
    {
      "command": "load_script",
      "arguments": [
        0,
        1128,
        0,
        0
      ],
      "data": "",
      "script_name": "01nana02_04"
    },
    {
      "command": "exit",
      "arguments": [
        -1,
        0,
        0,
        0
      ],
      "data": ""
    }
  ]
}