{
  "lines": [
    {
      "command": "window_title",
      "arguments": [
        0,
        0,
        0,
        0
      ],
      "original": "野望（ＹＡ－ＢＯ）　２００４",
      "tl": "",
      "finished": false
    },
    {
      "command": "0x10",
      "arguments": [
        0,
        0,
        0,
        0
      ],
      "data": "Z2FtZW92ZXJfMDEA"
    },
    {
      "command": "0x63",
      "arguments": [
        0,
        0,
        0,
        0
      ],
      "data": ""
    },
    {
      "command": "music",
      "arguments": [
        0,
        0,
        82,
        1
      ],
      "data": "",
      "music_name": "blue3"
    },
    {
      "command": "wav",
      "arguments": [
        0,
        0,
        0,
        0
      ],
      "data": "ZmlyZS53YXYA"
    },
    {
      "command": "bg",
      "arguments": [
        0,
        0,
        0,
        0
      ],
      "data": "AQAAAGdhbWVvdmVyXzAxAA=="
    },
    {
      "command": "0x2F",
      "arguments": [
        0,
        2,
        0,
        0
      ],
      "data": ""
    },
    {
      "command": "0x28",
      "arguments": [
        0,
        9830680,
        3932190,
        2359326
      ],
      "data": ""
    },
    {
      "command": "0x2A",
      "arguments": [
        0,
        255,
        16777215,
        0
      ],
      "data": ""
    },
    {
      "command": "0x2F",
      "arguments": [
        0,
        1,
        0,
        0
      ],
      "data": ""
    },
    {
      "command": "text",
      "arguments": [
        0,
        4,
        0,
        0
      ],
      "original": "信長は破れ、織田家は滅亡した。",
      "tl": "",
      "finished": false
    },
    {
      "command": "0x16",
      "arguments": [
        0,
        0,
        0,
        0
      ],
      "data": ""
    },
    {
      "command": "text",
      "arguments": [
        0,
        4,
        0,
        0
      ],
      "original": "　　　ゲームオーバー",
      "tl": "",
      "finished": false
    },
    {
      "command": "0x16",
      "arguments": [
        0,
        0,
        0,
        0
      ],
      "data": ""
    },
    {
      "command": "0x63",
      "arguments": [
        0,
        0,
        0,
        0
      ],
      "data": ""
    },
    {
      "command": "gotolabel",
      "arguments": [
        0,
        681,
        1,
        0
      ],
      "data": "dGl0bGUA",
      "script_name": "om_04"
    },
    {
      "command": "exit",
      "arguments": [
        -1,
        0,
        0,
        0
      ],
      "data": ""
    }
  ]
}