{
  "lines": [
    {
      "command": "text",
      "arguments": [
        0,
        0,
        0,
        0
      ],
      "original": "スタッフコメント１７番です",
      "tl": "",
      "finished": false
    },
    {
      "command": "text",
      "arguments": [
        0,
        0,
        0,
        0
      ],
      "original": "せいやんさん",
      "tl": "",
      "finished": false
    },
    {
      "command": "0x06",
      "arguments": [
        0,
        0,
        0,
        0
      ],
      "data": ""
    },
    {
      "command": "exit",
      "arguments": [
        -1,
        0,
        0,
        0
      ],
      "data": ""
    }
  ]
}