{
  "lines": [
    {
      "command": "window_title",
      "arguments": [
        0,
        0,
        0,
        0
      ],
      "original": "スタッフルーム　ｕ－ｒ",
      "tl": "",
      "finished": false
    },
    {
      "command": "0x59",
      "arguments": [
        0,
        0,
        0,
        0
      ],
      "data": ""
    },
    {
      "command": "bg",
      "arguments": [
        0,
        0,
        0,
        0
      ],
      "data": "AQAAAHUtcgA="
    },
    {
      "command": "0x2F",
      "arguments": [
        0,
        2,
        2,
        0
      ],
      "data": "IQAAABAAAAA="
    },
    {
      "command": "music",
      "arguments": [
        0,
        0,
        21,
        1
      ],
      "data": "",
      "music_name": "21_f07"
    },
    {
      "command": "name",
      "arguments": [
        0,
        1,
        0,
        0
      ],
      "original": "u-r"
    },
    {
      "command": "text",
      "arguments": [
        0,
        0,
        0,
        0
      ],
      "original": "こんにちは！u-rです！！",
      "tl": "",
      "finished": false,
      "speaker": "u-r",
      "autoQuote": true
    },
    {
      "command": "text",
      "arguments": [
        0,
        0,
        0,
        0
      ],
      "original": "自分の仕事が終わった途端に眠りこけてしまって",
      "tl": "",
      "finished": false,
      "speaker": "u-r",
      "autoQuote": true
    },
    {
      "command": "text",
      "arguments": [
        0,
        0,
        0,
        0
      ],
      "original": "スタッフルームの絵を描いていたはいいのですが",
      "tl": "",
      "finished": false,
      "speaker": "u-r",
      "autoQuote": true
    },
    {
      "command": "text",
      "arguments": [
        0,
        0,
        0,
        0
      ],
      "original": "スタッフコメントの存在を\\nすっかり忘れていたりなんかして。",
      "tl": "",
      "finished": false,
      "speaker": "u-r",
      "autoQuote": true
    },
    {
      "command": "text",
      "arguments": [
        0,
        0,
        0,
        0
      ],
      "original": "なので、愛猫ぽっとちゃんを\\n出演させることができませんでした。",
      "tl": "",
      "finished": false,
      "speaker": "u-r",
      "autoQuote": true
    },
    {
      "command": "text",
      "arguments": [
        0,
        0,
        0,
        0
      ],
      "original": "うわーん。（親ばか）スクリプトって偉大だ。\\n顔出しだけでも･･･というわけで、後ろにちょこんと。",
      "tl": "",
      "finished": false,
      "speaker": "u-r",
      "autoQuote": true
    },
    {
      "command": "text",
      "arguments": [
        0,
        0,
        0,
        0
      ],
      "original": "なでなでしても声は出ません。わ・ふーん。",
      "tl": "",
      "finished": false,
      "speaker": "u-r",
      "autoQuote": true
    },
    {
      "command": "text",
      "arguments": [
        0,
        0,
        0,
        0
      ],
      "original": "今回は原画とかCGとかアニメとか色々こまごました物を\\n担当させてもらいました。",
      "tl": "",
      "finished": false,
      "speaker": "u-r",
      "autoQuote": true
    },
    {
      "command": "text",
      "arguments": [
        0,
        0,
        0,
        0
      ],
      "original": "個人的ですが、初めてねこの市場ゲーム開発に\\n関わると言うことで色々な方に\\nお仕事を教えてもらったり見てもらったりしました。",
      "tl": "",
      "finished": false,
      "speaker": "u-r",
      "autoQuote": true
    },
    {
      "command": "text",
      "arguments": [
        0,
        0,
        0,
        0
      ],
      "original": "本当に有難う御座いました･･･！",
      "tl": "",
      "finished": false,
      "speaker": "u-r",
      "autoQuote": true
    },
    {
      "command": "text",
      "arguments": [
        0,
        0,
        0,
        0
      ],
      "original": "そういえば、まだソファーベッド買ってません･･･。\\n床でごろごろ。こ、今月こそは････。",
      "tl": "",
      "finished": false,
      "speaker": "u-r",
      "autoQuote": true
    },
    {
      "command": "text",
      "arguments": [
        0,
        0,
        0,
        0
      ],
      "original": "開発が終わったので、\\n地元北海道に旅行にいけたら嬉しいです。",
      "tl": "",
      "finished": false,
      "speaker": "u-r",
      "autoQuote": true
    },
    {
      "command": "text",
      "arguments": [
        0,
        0,
        0,
        0
      ],
      "original": "カニーーー！！イクラーーーーー！！！\\nホタテーーー！！！！",
      "tl": "",
      "finished": false,
      "speaker": "u-r",
      "autoQuote": true
    },
    {
      "command": "text",
      "arguments": [
        0,
        0,
        0,
        0
      ],
      "original": "豪華な海の幸に会いたい。",
      "tl": "",
      "finished": false,
      "speaker": "u-r",
      "autoQuote": true
    },
    {
      "command": "text",
      "arguments": [
        0,
        0,
        0,
        0
      ],
      "original": "そんなわけで、杉田さん、お待たせしてすいません。笑\\n皆さん、ラムネを楽しんでください！",
      "tl": "",
      "finished": false,
      "speaker": "u-r",
      "autoQuote": true
    },
    {
      "command": "0x64",
      "arguments": [
        0,
        0,
        0,
        0
      ],
      "data": ""
    },
    {
      "command": "0x06",
      "arguments": [
        0,
        0,
        0,
        0
      ],
      "data": ""
    },
    {
      "command": "exit",
      "arguments": [
        -1,
        0,
        0,
        0
      ],
      "data": ""
    }
  ]
}