{
  "lines": [
    {
      "command": "window_title",
      "arguments": [
        0,
        0,
        0,
        0
      ],
      "original": "スタッフルーム　やなちぃ",
      "tl": "",
      "finished": false
    },
    {
      "command": "0x59",
      "arguments": [
        0,
        0,
        0,
        0
      ],
      "data": ""
    },
    {
      "command": "bg",
      "arguments": [
        0,
        0,
        0,
        0
      ],
      "data": "AQAAAGJsYWNrAA=="
    },
    {
      "command": "0x2F",
      "arguments": [
        0,
        2,
        2,
        0
      ],
      "data": "IQAAABAAAAA="
    },
    {
      "command": "music",
      "arguments": [
        0,
        0,
        6,
        1
      ],
      "data": "",
      "music_name": "06_n_03"
    },
    {
      "command": "bg",
      "arguments": [
        0,
        0,
        0,
        0
      ],
      "data": "AQAAAHlhbmFjaGlfMDEA"
    },
    {
      "command": "0x2F",
      "arguments": [
        0,
        2,
        2,
        0
      ],
      "data": "IQAAABAAAAA="
    },
    {
      "command": "name",
      "arguments": [
        0,
        1,
        0,
        0
      ],
      "original": "やなちぃ"
    },
    {
      "command": "text",
      "arguments": [
        0,
        0,
        0,
        0
      ],
      "original": "「こんにちは、やなちぃです。\\nまたいつもの場所ですが、激しく接近してみました」",
      "tl": "",
      "finished": false,
      "speaker": "やなちぃ",
      "autoQuote": true
    },
    {
      "command": "text",
      "arguments": [
        0,
        0,
        0,
        0
      ],
      "original": "「今回はボディもラムネ色に。\\nいいかんじで存在も薄いです。」",
      "tl": "",
      "finished": false,
      "speaker": "やなちぃ",
      "autoQuote": true
    },
    {
      "command": "text",
      "arguments": [
        0,
        0,
        0,
        0
      ],
      "original": "「さてさて、「ラムネ」プレイ済みかと思いますが、\\nいかがでしたでしょうか？」",
      "tl": "",
      "finished": false,
      "speaker": "やなちぃ",
      "autoQuote": true
    },
    {
      "command": "text",
      "arguments": [
        0,
        0,
        0,
        0
      ],
      "original": "「今回もパッケージの中には\\nアンケートハガキが入っておりますので…」",
      "tl": "",
      "finished": false,
      "speaker": "やなちぃ",
      "autoQuote": true
    },
    {
      "command": "text",
      "arguments": [
        0,
        0,
        0,
        0
      ],
      "original": "「ご意見ご感想などなど、\\nお聞かせ頂けますと嬉しいです！」",
      "tl": "",
      "finished": false,
      "speaker": "やなちぃ",
      "autoQuote": true
    },
    {
      "command": "text",
      "arguments": [
        0,
        0,
        0,
        0
      ],
      "original": "「と、いうことで、ここで恒例の\\nアンケートハガキについてのお知らせでございます。」",
      "tl": "",
      "finished": false,
      "speaker": "やなちぃ",
      "autoQuote": true
    },
    {
      "command": "text",
      "arguments": [
        0,
        0,
        0,
        0
      ],
      "original": "「ハガキへのご記入の際は、ボールペン等で、\\n楷書でハッキリと書いて頂けますと大変助かります。」",
      "tl": "",
      "finished": false,
      "speaker": "やなちぃ",
      "autoQuote": true
    },
    {
      "command": "text",
      "arguments": [
        0,
        0,
        0,
        0
      ],
      "original": "「住所変更の際には、メール・ＦＡＸ・ハガキなど、\\nどの方法でも構いませんので…」",
      "tl": "",
      "finished": false,
      "speaker": "やなちぃ",
      "autoQuote": true
    },
    {
      "command": "text",
      "arguments": [
        0,
        0,
        0,
        0
      ],
      "original": "「お問い合わせの内容がわかる件名を書いて頂き、\\nお早めのご連絡をお願いいたします。」",
      "tl": "",
      "finished": false,
      "speaker": "やなちぃ",
      "autoQuote": true
    },
    {
      "command": "text",
      "arguments": [
        0,
        0,
        0,
        0
      ],
      "original": "「その際は、変更前の住所やお名前等の詳細も\\nご記入くださると幸いです。」",
      "tl": "",
      "finished": false,
      "speaker": "やなちぃ",
      "autoQuote": true
    },
    {
      "command": "text",
      "arguments": [
        0,
        0,
        0,
        0
      ],
      "original": "「…とまぁこのような感じでしょうか。」",
      "tl": "",
      "finished": false,
      "speaker": "やなちぃ",
      "autoQuote": true
    },
    {
      "command": "text",
      "arguments": [
        0,
        0,
        0,
        0
      ],
      "original": "「それでは、今回はこの辺で～。\\nまたお会いできますことを願いつつ（深々）」",
      "tl": "",
      "finished": false,
      "speaker": "やなちぃ",
      "autoQuote": true
    },
    {
      "command": "name",
      "arguments": [
        0,
        0,
        0,
        0
      ],
      "original": ""
    },
    {
      "command": "text",
      "arguments": [
        0,
        0,
        0,
        0
      ],
      "original": "…………………\\n……………。",
      "tl": "",
      "finished": false
    },
    {
      "command": "0x64",
      "arguments": [
        0,
        0,
        0,
        0
      ],
      "data": ""
    },
    {
      "command": "branchflag",
      "arguments": [
        1608,
        1,
        0,
        0
      ],
      "data": "FAAAAA==",
      "jump": 3
    },
    {
      "command": "0x01",
      "arguments": [
        0,
        0,
        0,
        0
      ],
      "data": ""
    },
    {
      "command": "jump",
      "arguments": [
        1656,
        0,
        0,
        0
      ],
      "data": "",
      "jump": 3
    },
    {
      "command": "0x06",
      "arguments": [
        0,
        0,
        0,
        0
      ],
      "data": ""
    },
    {
      "command": "0x03",
      "arguments": [
        0,
        0,
        0,
        0
      ],
      "data": ""
    },
    {
      "command": "choice",
      "arguments": [
        0,
        2,
        0,
        0
      ],
      "original": [
        "▽終わる",
        "▽旅にでる"
      ],
      "tl": [
        "",
        ""
      ],
      "finished": false
    },
    {
      "command": "branch",
      "arguments": [
        1772,
        0,
        1,
        1
      ],
      "data": "",
      "jump": 3
    },
    {
      "command": "0x06",
      "arguments": [
        0,
        0,
        0,
        0
      ],
      "data": ""
    },
    {
      "command": "0x03",
      "arguments": [
        0,
        0,
        0,
        0
      ],
      "data": ""
    },
    {
      "command": "0x59",
      "arguments": [
        0,
        0,
        0,
        0
      ],
      "data": ""
    },
    {
      "command": "0x2F",
      "arguments": [
        0,
        2,
        2,
        0
      ],
      "data": "IQAAABAAAAA="
    },
    {
      "command": "bg",
      "arguments": [
        0,
        0,
        0,
        0
      ],
      "data": "AQAAAHdoaXRlAA=="
    },
    {
      "command": "0x2F",
      "arguments": [
        0,
        2,
        2,
        0
      ],
      "data": "IQAAABAAAAA="
    },
    {
      "command": "0x16",
      "arguments": [
        0,
        0,
        0,
        0
      ],
      "data": ""
    },
    {
      "command": "wav",
      "arguments": [
        0,
        0,
        0,
        0
      ],
      "data": "dG9yaS53YXYA"
    },
    {
      "command": "text",
      "arguments": [
        0,
        0,
        0,
        0
      ],
      "original": "山はいいなぁ。\\n空気がきれいだし、心が安らぐよ～♪",
      "tl": "",
      "finished": false
    },
    {
      "command": "text",
      "arguments": [
        0,
        0,
        0,
        0
      ],
      "original": "…………………\\n……………ハッ！",
      "tl": "",
      "finished": false
    },
    {
      "command": "music",
      "arguments": [
        0,
        0,
        24,
        1
      ],
      "data": "",
      "music_name": "24_n_04"
    },
    {
      "command": "0x59",
      "arguments": [
        0,
        0,
        0,
        0
      ],
      "data": ""
    },
    {
      "command": "0x2F",
      "arguments": [
        0,
        2,
        2,
        0
      ],
      "data": "IQAAABAAAAA="
    },
    {
      "command": "bg",
      "arguments": [
        0,
        0,
        0,
        0
      ],
      "data": "AQAAAHlhbmFjaGlfMDIA"
    },
    {
      "command": "0x2F",
      "arguments": [
        0,
        2,
        2,
        0
      ],
      "data": "IQAAABAAAAA="
    },
    {
      "command": "name",
      "arguments": [
        0,
        1,
        0,
        0
      ],
      "original": "やなちぃ"
    },
    {
      "command": "text",
      "arguments": [
        0,
        0,
        0,
        0
      ],
      "original": "「このような所まで覗いて頂き、有難うございます。\\nよろしければもう少しお付き合いくださいませ。」",
      "tl": "",
      "finished": false,
      "speaker": "やなちぃ",
      "autoQuote": true
    },
    {
      "command": "text",
      "arguments": [
        0,
        0,
        0,
        0
      ],
      "original": "「ということで改めましてこんにちは、やなちぃです。\\nそして相棒のマハラジャ列車さんです。」",
      "tl": "",
      "finished": false,
      "speaker": "やなちぃ",
      "autoQuote": true
    },
    {
      "command": "text",
      "arguments": [
        0,
        0,
        0,
        0
      ],
      "original": "「いつもの場所から離れて、プチ旅にでてきました。\\nついでにほんのり３Ｄ化です。（制作所要時間2分）」",
      "tl": "",
      "finished": false,
      "speaker": "やなちぃ",
      "autoQuote": true
    },
    {
      "command": "name",
      "arguments": [
        0,
        0,
        0,
        0
      ],
      "original": ""
    },
    {
      "command": "bg",
      "arguments": [
        0,
        0,
        0,
        0
      ],
      "data": "AQAAAHlhbmFjaGlfMDMA"
    },
    {
      "command": "0x2F",
      "arguments": [
        0,
        2,
        2,
        0
      ],
      "data": "IQAAABAAAAA="
    },
    {
      "command": "name",
      "arguments": [
        0,
        1,
        0,
        0
      ],
      "original": "やなちぃ"
    },
    {
      "command": "text",
      "arguments": [
        0,
        0,
        0,
        0
      ],
      "original": "「えー、マハラジャさんをはじめ、ねんどのやつを\\nいろいろとやらせてもらったのですが…」",
      "tl": "",
      "finished": false,
      "speaker": "やなちぃ",
      "autoQuote": true
    },
    {
      "command": "text",
      "arguments": [
        0,
        0,
        0,
        0
      ],
      "original": "「なんというか、最近のねんどはすごいわぁなんて\\n思いながら、こねこねぎったんしておりました。」",
      "tl": "",
      "finished": false,
      "speaker": "やなちぃ",
      "autoQuote": true
    },
    {
      "command": "text",
      "arguments": [
        0,
        0,
        0,
        0
      ],
      "original": "「自分の不器用さに辟易しながらも、\\n無事できてよかったーとホッとしております。」",
      "tl": "",
      "finished": false,
      "speaker": "やなちぃ",
      "autoQuote": true
    },
    {
      "command": "text",
      "arguments": [
        0,
        0,
        0,
        0
      ],
      "original": "「いいかんじで針金とか出てますので、\\n見てやってくださいませ～。」",
      "tl": "",
      "finished": false,
      "speaker": "やなちぃ",
      "autoQuote": true
    },
    {
      "command": "text",
      "arguments": [
        0,
        0,
        0,
        0
      ],
      "original": "「うでもげてるし。\\nもげもげもげ。もげもげ。」",
      "tl": "",
      "finished": false,
      "speaker": "やなちぃ",
      "autoQuote": true
    },
    {
      "command": "name",
      "arguments": [
        0,
        0,
        0,
        0
      ],
      "original": ""
    },
    {
      "command": "bg",
      "arguments": [
        0,
        0,
        0,
        0
      ],
      "data": "AQAAAHlhbmFjaGlfMDQA"
    },
    {
      "command": "0x2F",
      "arguments": [
        0,
        2,
        2,
        0
      ],
      "data": "IQAAABAAAAA="
    },
    {
      "command": "wav",
      "arguments": [
        0,
        0,
        0,
        0
      ],
      "data": "em91LndhdgA="
    },
    {
      "command": "name",
      "arguments": [
        0,
        1,
        0,
        0
      ],
      "original": "やなちぃ"
    },
    {
      "command": "text",
      "arguments": [
        0,
        0,
        0,
        0
      ],
      "original": "「インド象さんです。\\n七海さんもいっしょにパチリ。」",
      "tl": "",
      "finished": false,
      "speaker": "やなちぃ",
      "autoQuote": true
    },
    {
      "command": "text",
      "arguments": [
        0,
        0,
        0,
        0
      ],
      "original": "「アングルやシチュエーションの都合上、\\n象さんは本編にはいれられなかったのですが、」",
      "tl": "",
      "finished": false,
      "speaker": "やなちぃ",
      "autoQuote": true
    },
    {
      "command": "text",
      "arguments": [
        0,
        0,
        0,
        0
      ],
      "original": "「実はこの象さんは秋乃さんが丁寧に\\n作ってくださったものだったりします～。」",
      "tl": "",
      "finished": false,
      "speaker": "やなちぃ",
      "autoQuote": true
    },
    {
      "command": "text",
      "arguments": [
        0,
        0,
        0,
        0
      ],
      "original": "「……ねんどのなかで一番丁寧です。確実に。\\n少なくともエセ３Ｄな私とは比べ物になりません。」",
      "tl": "",
      "finished": false,
      "speaker": "やなちぃ",
      "autoQuote": true
    },
    {
      "command": "text",
      "arguments": [
        0,
        0,
        0,
        0
      ],
      "original": "「不器用ですから……（by某ＫＥＮさん）」",
      "tl": "",
      "finished": false,
      "speaker": "やなちぃ",
      "autoQuote": true
    },
    {
      "command": "name",
      "arguments": [
        0,
        0,
        0,
        0
      ],
      "original": ""
    },
    {
      "command": "text",
      "arguments": [
        0,
        0,
        0,
        0
      ],
      "original": "…………………\\n………………",
      "tl": "",
      "finished": false
    },
    {
      "command": "name",
      "arguments": [
        0,
        1,
        0,
        0
      ],
      "original": "やなちぃ"
    },
    {
      "command": "text",
      "arguments": [
        0,
        0,
        0,
        0
      ],
      "original": "「それでは、そろそろ終わりにしたいと思います。\\nお付き合いいただきありがとうございました～！」",
      "tl": "",
      "finished": false,
      "speaker": "やなちぃ",
      "autoQuote": true
    },
    {
      "command": "name",
      "arguments": [
        0,
        0,
        0,
        0
      ],
      "original": ""
    },
    {
      "command": "0x59",
      "arguments": [
        0,
        0,
        0,
        0
      ],
      "data": ""
    },
    {
      "command": "0x2F",
      "arguments": [
        0,
        2,
        2,
        0
      ],
      "data": "IQAAABAAAAA="
    },
    {
      "command": "bg",
      "arguments": [
        0,
        0,
        0,
        0
      ],
      "data": "AQAAAHlhbmFjaGlfMDUA"
    },
    {
      "command": "0x2F",
      "arguments": [
        0,
        2,
        2,
        0
      ],
      "data": "IQAAABAAAAA="
    },
    {
      "command": "0x16",
      "arguments": [
        0,
        0,
        0,
        0
      ],
      "data": ""
    },
    {
      "command": "text",
      "arguments": [
        0,
        0,
        0,
        0
      ],
      "original": "みんなでおみおくりのまき。",
      "tl": "",
      "finished": false
    },
    {
      "command": "text",
      "arguments": [
        0,
        0,
        0,
        0
      ],
      "original": "終わり。",
      "tl": "",
      "finished": false
    },
    {
      "command": "0x64",
      "arguments": [
        0,
        0,
        0,
        0
      ],
      "data": ""
    },
    {
      "command": "0x06",
      "arguments": [
        0,
        0,
        0,
        0
      ],
      "data": ""
    },
    {
      "command": "exit",
      "arguments": [
        -1,
        0,
        0,
        0
      ],
      "data": ""
    }
  ]
}