{
  "lines": [
    {
      "command": "load_script",
      "arguments": [
        0,
        4102,
        0,
        0
      ],
      "data": "",
      "script_name": "tae_01day_02"
    },
    {
      "command": "exit",
      "arguments": [
        -1,
        0,
        0,
        0
      ],
      "data": ""
    }
  ]
}