{
  "lines": [
    {
      "command": "0x30",
      "arguments": [
        0,
        4,
        0,
        0
      ],
      "data": "DwAAAAoAAAAQAAAAEAAAAA=="
    },
    {
      "command": "window_title",
      "arguments": [
        0,
        0,
        0,
        0
      ],
      "original": "多恵　７月２２日",
      "tl": "",
      "finished": false
    },
    {
      "command": "name",
      "arguments": [
        0,
        1,
        512,
        0
      ],
      "original": "<FN>"
    },
    {
      "command": "text",
      "arguments": [
        0,
        0,
        0,
        0
      ],
      "original": "「先輩ってさ、ＴＶゲームとかしたことある？」",
      "tl": "",
      "finished": false,
      "speaker": "<FN>",
      "autoQuote": true
    },
    {
      "command": "name",
      "arguments": [
        0,
        0,
        0,
        0
      ],
      "original": ""
    },
    {
      "command": "figure",
      "arguments": [
        0,
        1,
        0,
        1
      ],
      "data": "dGFlMV8zbl9hMDEA"
    },
    {
      "command": "0x2F",
      "arguments": [
        0,
        2,
        0,
        0
      ],
      "data": ""
    },
    {
      "command": "ogg",
      "arguments": [
        0,
        4,
        0,
        0
      ],
      "data": "dGFlXzExNTdCLm9nZwA="
    },
    {
      "command": "name",
      "arguments": [
        0,
        1,
        0,
        0
      ],
      "original": "多恵"
    },
    {
      "command": "text",
      "arguments": [
        0,
        0,
        0,
        0
      ],
      "original": "「ＴＶゲーム？　うん、あるよ」",
      "tl": "",
      "finished": false,
      "speaker": "多恵",
      "autoQuote": true
    },
    {
      "command": "name",
      "arguments": [
        0,
        0,
        0,
        0
      ],
      "original": ""
    },
    {
      "command": "text",
      "arguments": [
        0,
        0,
        0,
        0
      ],
      "original": "おお、意外な回答。\\nてっきりそういうモノとは無縁だと思ってたけど。",
      "tl": "",
      "finished": false
    },
    {
      "command": "figure",
      "arguments": [
        0,
        1,
        0,
        1
      ],
      "data": "dGFlMV8zbl9iMDYA"
    },
    {
      "command": "0x2F",
      "arguments": [
        0,
        2,
        0,
        0
      ],
      "data": ""
    },
    {
      "command": "ogg",
      "arguments": [
        0,
        4,
        0,
        0
      ],
      "data": "dGFlXzExNTgub2dnAA=="
    },
    {
      "command": "name",
      "arguments": [
        0,
        1,
        0,
        0
      ],
      "original": "多恵"
    },
    {
      "command": "text",
      "arguments": [
        0,
        0,
        0,
        0
      ],
      "original": "「弟たちと一緒に、ちょこっとやっただけだけどね」",
      "tl": "",
      "finished": false,
      "speaker": "多恵",
      "autoQuote": true
    },
    {
      "command": "name",
      "arguments": [
        0,
        1,
        512,
        0
      ],
      "original": "<FN>"
    },
    {
      "command": "text",
      "arguments": [
        0,
        0,
        0,
        0
      ],
      "original": "「あ、なるほど。その時はどんなのをやった？」",
      "tl": "",
      "finished": false,
      "speaker": "<FN>",
      "autoQuote": true
    },
    {
      "command": "name",
      "arguments": [
        0,
        0,
        0,
        0
      ],
      "original": ""
    },
    {
      "command": "text",
      "arguments": [
        0,
        0,
        0,
        0
      ],
      "original": "格ゲーとかパズルものだったらうちにもあるし、\\n細かい説明しなくても一緒に遊べるかもしれない。",
      "tl": "",
      "finished": false
    },
    {
      "command": "figure",
      "arguments": [
        0,
        1,
        0,
        1
      ],
      "data": "dGFlMV8zbl9iMDIA"
    },
    {
      "command": "0x2F",
      "arguments": [
        0,
        2,
        0,
        0
      ],
      "data": ""
    },
    {
      "command": "ogg",
      "arguments": [
        0,
        4,
        0,
        0
      ],
      "data": "dGFlXzExNTkub2dnAA=="
    },
    {
      "command": "name",
      "arguments": [
        0,
        1,
        0,
        0
      ],
      "original": "多恵"
    },
    {
      "command": "text",
      "arguments": [
        0,
        0,
        0,
        0
      ],
      "original": "「えっとね、なんだかすごく難しかった」",
      "tl": "",
      "finished": false,
      "speaker": "多恵",
      "autoQuote": true
    },
    {
      "command": "name",
      "arguments": [
        0,
        1,
        512,
        0
      ],
      "original": "<FN>"
    },
    {
      "command": "text",
      "arguments": [
        0,
        0,
        0,
        0
      ],
      "original": "「まぁ、ゲームをやり慣れてない人にしたら、\\n　大抵はそうだろうな」",
      "tl": "",
      "finished": false,
      "speaker": "<FN>",
      "autoQuote": true
    },
    {
      "command": "name",
      "arguments": [
        0,
        0,
        0,
        0
      ],
      "original": ""
    },
    {
      "command": "figure",
      "arguments": [
        0,
        1,
        0,
        1
      ],
      "data": "dGFlMV8zbl9hMDgA"
    },
    {
      "command": "0x2F",
      "arguments": [
        0,
        2,
        0,
        0
      ],
      "data": ""
    },
    {
      "command": "ogg",
      "arguments": [
        0,
        4,
        0,
        0
      ],
      "data": "dGFlXzExNjAub2dnAA=="
    },
    {
      "command": "name",
      "arguments": [
        0,
        1,
        0,
        0
      ],
      "original": "多恵"
    },
    {
      "command": "text",
      "arguments": [
        0,
        0,
        0,
        0
      ],
      "original": "「先に進もうとすると、すぐに死んじゃうの」",
      "tl": "",
      "finished": false,
      "speaker": "多恵",
      "autoQuote": true
    },
    {
      "command": "name",
      "arguments": [
        0,
        1,
        512,
        0
      ],
      "original": "<FN>"
    },
    {
      "command": "text",
      "arguments": [
        0,
        0,
        0,
        0
      ],
      "original": "「ん？　それってアクションゲームか？」",
      "tl": "",
      "finished": false,
      "speaker": "<FN>",
      "autoQuote": true
    },
    {
      "command": "name",
      "arguments": [
        0,
        0,
        0,
        0
      ],
      "original": ""
    },
    {
      "command": "figure",
      "arguments": [
        0,
        1,
        0,
        1
      ],
      "data": "dGFlMV8zbl9iMDIA"
    },
    {
      "command": "0x2F",
      "arguments": [
        0,
        2,
        0,
        0
      ],
      "data": ""
    },
    {
      "command": "ogg",
      "arguments": [
        0,
        4,
        0,
        0
      ],
      "data": "dGFlXzExNjEub2dnAA=="
    },
    {
      "command": "name",
      "arguments": [
        0,
        1,
        0,
        0
      ],
      "original": "多恵"
    },
    {
      "command": "text",
      "arguments": [
        0,
        0,
        0,
        0
      ],
      "original": "「よくわかんないけど、\\n　とにかくすぐにやられちゃって」",
      "tl": "",
      "finished": false,
      "speaker": "多恵",
      "autoQuote": true
    },
    {
      "command": "name",
      "arguments": [
        0,
        1,
        512,
        0
      ],
      "original": "<FN>"
    },
    {
      "command": "text",
      "arguments": [
        0,
        0,
        0,
        0
      ],
      "original": "「ははは、さすがの先輩もゲームは苦手だったか」",
      "tl": "",
      "finished": false,
      "speaker": "<FN>",
      "autoQuote": true
    },
    {
      "command": "name",
      "arguments": [
        0,
        0,
        0,
        0
      ],
      "original": ""
    },
    {
      "command": "figure",
      "arguments": [
        0,
        1,
        0,
        1
      ],
      "data": "dGFlMV8zbl9iMTMA"
    },
    {
      "command": "0x2F",
      "arguments": [
        0,
        2,
        0,
        0
      ],
      "data": ""
    },
    {
      "command": "ogg",
      "arguments": [
        0,
        4,
        0,
        0
      ],
      "data": "dGFlXzExNjIub2dnAA=="
    },
    {
      "command": "name",
      "arguments": [
        0,
        1,
        0,
        0
      ],
      "original": "多恵"
    },
    {
      "command": "text",
      "arguments": [
        0,
        0,
        0,
        0
      ],
      "original": "「ちょっとでも落ちるとすぐ死んじゃうし、\\n　ジャンプしただけでもゲームオーバーになるし…」",
      "tl": "",
      "finished": false,
      "speaker": "多恵",
      "autoQuote": true
    },
    {
      "command": "name",
      "arguments": [
        0,
        1,
        512,
        0
      ],
      "original": "<FN>"
    },
    {
      "command": "text",
      "arguments": [
        0,
        0,
        0,
        0
      ],
      "original": "「おいおい、いくらなんでもそんな…」",
      "tl": "",
      "finished": false,
      "speaker": "<FN>",
      "autoQuote": true
    },
    {
      "command": "name",
      "arguments": [
        0,
        0,
        0,
        0
      ],
      "original": ""
    },
    {
      "command": "text",
      "arguments": [
        0,
        0,
        0,
        0
      ],
      "original": "不条理なゲームはないだろ、\\nと言いかけて口をつぐんだ。",
      "tl": "",
      "finished": false
    },
    {
      "command": "text",
      "arguments": [
        0,
        0,
        0,
        0
      ],
      "original": "一つだけ、\\nそんな不条理なゲームに心当たりがあったりして…",
      "tl": "",
      "finished": false
    },
    {
      "command": "name",
      "arguments": [
        0,
        1,
        512,
        0
      ],
      "original": "<FN>"
    },
    {
      "command": "text",
      "arguments": [
        0,
        0,
        0,
        0
      ],
      "original": "「なぁ先輩、そのゲームってもしかしてスペ…」",
      "tl": "",
      "finished": false,
      "speaker": "<FN>",
      "autoQuote": true
    },
    {
      "command": "name",
      "arguments": [
        0,
        0,
        0,
        0
      ],
      "original": ""
    },
    {
      "command": "figure",
      "arguments": [
        0,
        1,
        0,
        1
      ],
      "data": "dGFlMV8zbl9hMDIA"
    },
    {
      "command": "0x2F",
      "arguments": [
        0,
        2,
        0,
        0
      ],
      "data": ""
    },
    {
      "command": "ogg",
      "arguments": [
        0,
        4,
        0,
        0
      ],
      "data": "dGFlXzExNjMub2dnAA=="
    },
    {
      "command": "name",
      "arguments": [
        0,
        1,
        0,
        0
      ],
      "original": "多恵"
    },
    {
      "command": "text",
      "arguments": [
        0,
        0,
        0,
        0
      ],
      "original": "「スペ？」",
      "tl": "",
      "finished": false,
      "speaker": "多恵",
      "autoQuote": true
    },
    {
      "command": "name",
      "arguments": [
        0,
        1,
        512,
        0
      ],
      "original": "<FN>"
    },
    {
      "command": "text",
      "arguments": [
        0,
        0,
        0,
        0
      ],
      "original": "「…いや、何でもない」",
      "tl": "",
      "finished": false,
      "speaker": "<FN>",
      "autoQuote": true
    },
    {
      "command": "name",
      "arguments": [
        0,
        1,
        0,
        0
      ],
      "original": "多恵"
    },
    {
      "command": "text",
      "arguments": [
        0,
        0,
        0,
        0
      ],
      "original": "「？」",
      "tl": "",
      "finished": false,
      "speaker": "多恵",
      "autoQuote": true
    },
    {
      "command": "name",
      "arguments": [
        0,
        0,
        0,
        0
      ],
      "original": ""
    },
    {
      "command": "text",
      "arguments": [
        0,
        0,
        0,
        0
      ],
      "original": "たぶん先輩に聞いてもわからないだろうし、\\n聞くまでもなく俺はどこか確信していた。",
      "tl": "",
      "finished": false
    },
    {
      "command": "figure",
      "arguments": [
        0,
        1,
        0,
        1
      ],
      "data": "dGFlMV8zbl9iMDEA"
    },
    {
      "command": "0x2F",
      "arguments": [
        0,
        2,
        0,
        0
      ],
      "data": ""
    },
    {
      "command": "ogg",
      "arguments": [
        0,
        4,
        0,
        0
      ],
      "data": "dGFlXzExNjQub2dnAA=="
    },
    {
      "command": "name",
      "arguments": [
        0,
        1,
        0,
        0
      ],
      "original": "多恵"
    },
    {
      "command": "text",
      "arguments": [
        0,
        0,
        0,
        0
      ],
      "original": "「やっぱり私には、ゲームは難しすぎるかも」",
      "tl": "",
      "finished": false,
      "speaker": "多恵",
      "autoQuote": true
    },
    {
      "command": "name",
      "arguments": [
        0,
        1,
        512,
        0
      ],
      "original": "<FN>"
    },
    {
      "command": "text",
      "arguments": [
        0,
        0,
        0,
        0
      ],
      "original": "「そ、そうだな。はははは…」",
      "tl": "",
      "finished": false,
      "speaker": "<FN>",
      "autoQuote": true
    },
    {
      "command": "name",
      "arguments": [
        0,
        0,
        0,
        0
      ],
      "original": ""
    },
    {
      "command": "text",
      "arguments": [
        0,
        0,
        0,
        0
      ],
      "original": "つーか、あれは初心者でなくても難しいだろう。\\n俺だってあんなの越せないっての。",
      "tl": "",
      "finished": false
    },
    {
      "command": "text",
      "arguments": [
        0,
        0,
        0,
        0
      ],
      "original": "とにかく、ＴＶゲームはやめにしよう。\\nもっと別の何かはないか…",
      "tl": "",
      "finished": false
    },
    {
      "command": "load_script",
      "arguments": [
        0,
        4305,
        0,
        0
      ],
      "data": "",
      "script_name": "tae_11day_02"
    },
    {
      "command": "exit",
      "arguments": [
        -1,
        0,
        0,
        0
      ],
      "data": ""
    }
  ]
}